# Blender v2.66 (sub 1) OBJ File: ''
# www.blender.org
v 142.435074 1.898224 121.999977
v 143.585938 1.898224 121.999977
v 142.435074 38.886177 121.999985
v 143.585938 47.999611 121.999985
v 142.435074 47.999611 121.999985
v 160.728439 1.898224 121.999977
v 161.598709 1.898224 121.999977
v 160.728439 47.999611 121.999985
v 161.598709 47.999611 121.999985
v 85.140434 1.898224 121.999977
v 86.010384 1.898224 121.999977
v 85.140434 47.999611 121.999985
v 86.010384 47.999611 121.999985
v 103.152977 1.898224 121.999977
v 104.303833 1.898224 121.999977
v 103.152977 47.999611 121.999985
v 104.303833 38.886177 121.999985
v 104.303833 47.999611 121.999985
v 75.531898 66.710831 121.999985
v 67.997871 47.999611 121.999985
v 171.207077 66.710831 121.999985
v 178.741196 47.999611 121.999985
v 75.531898 90.843254 121.999992
v 75.531898 78.561615 121.999992
v 171.207077 78.561615 121.999992
v 171.207077 90.843254 121.999992
v 75.531898 114.975700 121.999992
v 75.531898 102.693947 121.999992
v 171.207077 102.693947 121.999992
v 171.207077 114.975700 121.999992
v 75.531898 139.108322 122.000000
v 75.531898 126.826477 122.000000
v 171.207077 126.826477 122.000000
v 171.207077 139.108322 122.000000
v 75.531898 163.240601 122.000000
v 75.531898 150.959015 122.000000
v 171.207077 150.959015 122.000000
v 171.207077 163.240601 122.000000
v 75.531898 187.372955 122.000008
v 75.531898 175.091370 122.000008
v 171.207077 175.091370 122.000008
v 171.207077 187.372955 122.000008
v 75.531898 211.505310 122.000015
v 75.531898 199.223740 122.000008
v 171.207077 199.223740 122.000008
v 171.207077 211.505310 122.000015
v 75.531898 235.637802 122.000015
v 75.531898 223.356003 122.000015
v 171.207077 223.356003 122.000015
v 171.207077 235.637802 122.000015
v 75.531898 259.770355 122.000023
v 75.531898 247.488602 122.000015
v 171.207077 247.488602 122.000015
v 171.207077 259.770355 122.000023
v 75.531898 308.035278 122.000031
v 75.531898 295.753479 122.000023
v 171.207077 295.753479 122.000023
v 171.207077 308.035278 122.000031
v 75.531898 283.902710 122.000023
v 75.531898 271.621033 122.000023
v 171.207077 271.621033 122.000023
v 171.207077 283.902710 122.000023
v 67.997871 1.898224 121.999977
v 62.739002 -0.000020 121.999977
v 183.999985 -0.000020 121.999977
v 178.741196 1.898224 121.999977
v 183.999985 344.999908 122.000031
v 171.207077 333.474670 122.000031
v 62.739002 344.999908 122.000031
v 75.531898 333.474670 122.000031
v 184.000000 247.488647 108.465866
v 184.000000 259.770355 108.465874
v 184.000000 344.999969 122.000038
v 183.999985 223.356049 -108.465775
v 183.999985 235.637894 -108.465775
v 184.000000 235.637863 108.465866
v 184.000000 223.356018 108.465866
v 183.999985 126.826553 -108.465790
v 183.999985 139.108383 -108.465790
v 184.000000 139.108353 108.465851
v 184.000000 126.826523 108.465851
v 183.999985 247.488678 -108.465775
v 183.999985 345.000031 -121.999947
v 183.999985 271.621124 -108.465767
v 183.999985 259.770416 -108.465767
v 183.999985 78.561668 -108.465797
v 183.999985 66.710892 -108.465805
v 183.999985 0.000020 -122.000000
v 183.999985 102.694031 -108.465797
v 183.999985 90.843338 -108.465797
v 183.999985 199.223785 -108.465782
v 183.999985 187.373001 -108.465782
v 183.999985 211.505356 -108.465775
v 183.999985 283.902771 -108.465767
v 184.000000 283.902710 108.465874
v 184.000000 271.621063 108.465874
v 184.000000 78.561638 108.465843
v 184.000000 90.843307 108.465843
v 184.000000 -0.000020 121.999985
v 183.999985 308.035370 -108.465759
v 183.999985 295.753540 -108.465767
v 184.000000 66.710861 108.465836
v 183.999985 114.975769 -108.465797
v 183.999985 150.959061 -108.465790
v 184.000000 150.959030 108.465851
v 184.000000 114.975739 108.465843
v 184.000000 163.240616 108.465851
v 184.000000 175.091400 108.465858
v 184.000000 295.753479 108.465874
v 183.999985 163.240646 -108.465790
v 184.000000 102.694000 108.465843
v 183.999985 175.091431 -108.465782
v 184.000000 199.223755 108.465858
v 184.000000 211.505325 108.465866
v 183.999985 333.474792 -108.465759
v 184.000000 308.035309 108.465881
v 184.000000 333.474731 108.465881
v 184.000000 187.372971 108.465858
v -41.564785 1.898262 0.463896
v -40.397331 1.898262 0.463896
v -41.564785 38.886208 0.463902
v -40.397331 47.999638 0.463904
v -41.564785 47.999638 0.463904
v -23.254866 1.898262 0.463896
v -22.087429 1.898262 0.463896
v -23.254866 47.999638 0.463904
v -22.087429 47.999638 0.463904
v -99.173431 1.898262 0.463896
v -98.006035 1.898262 0.463896
v -99.173431 47.999638 0.463904
v -98.006035 47.999638 0.463904
v -80.863426 1.898262 0.463896
v -79.696007 1.898262 0.463896
v -80.863426 47.999638 0.463904
v -79.696007 38.886208 0.463902
v -79.696007 47.999638 0.463904
v -4.944945 1.898262 0.463896
v -3.777545 1.898262 0.463896
v -4.944945 47.999638 0.463904
v -3.777545 47.999638 0.463904
v 13.364958 1.898262 0.463896
v 14.532464 1.898262 0.463896
v 13.364958 47.999638 0.463904
v 14.532464 47.999638 0.463904
v -135.793381 1.898262 0.463896
v -134.625977 1.898262 0.463896
v -135.793381 47.999638 0.463904
v -134.625977 47.999638 0.463904
v -117.483444 1.898262 0.463896
v -116.315971 1.898262 0.463896
v -117.483444 47.999638 0.463904
v -116.315971 47.999638 0.463904
v -152.935989 1.898262 0.463896
v -184.000000 -0.000000 0.463896
v 62.738972 -0.000000 0.463896
v 31.674931 1.898262 0.463896
v 31.674931 47.999638 0.463904
v -171.207108 75.543762 0.463908
v -152.935989 47.999638 0.463904
v 49.946075 75.543762 0.463908
v 62.738972 344.999939 0.463952
v 49.946075 319.401245 0.463948
v -184.000000 344.999939 0.463952
v -171.207108 319.401245 0.463948
v 62.738979 126.826500 13.285815
v 62.738976 126.826485 109.178062
v 62.738976 139.108322 109.178062
v 62.738979 139.108337 13.285817
v 62.738979 150.959030 13.285819
v 62.738976 150.959015 109.178062
v 62.738976 163.240601 109.178062
v 62.738979 163.240616 13.285821
v 62.738979 175.091385 13.285823
v 62.738976 175.091370 109.178070
v 62.738979 187.372971 13.285825
v 62.738976 187.372955 109.178070
v 62.738979 199.223755 13.285827
v 62.738976 199.223740 109.178070
v 62.738976 211.505310 109.178078
v 62.738979 211.505325 13.285829
v 62.738979 223.356033 13.285830
v 62.738976 223.356018 109.178078
v 62.738979 235.637848 13.285832
v 62.738976 235.637833 109.178078
v 62.738979 247.488617 13.285834
v 62.738976 247.488602 109.178078
v 62.738979 259.770386 13.285836
v 62.738976 259.770355 109.178085
v 62.738979 271.621063 13.285838
v 62.738976 271.621033 109.178085
v 62.738976 283.902710 109.178085
v 62.738979 283.902740 13.285841
v 62.738979 295.753510 13.285843
v 62.738976 295.753479 109.178085
v 62.738979 308.035309 13.285845
v 62.738976 308.035278 109.178093
v 62.738976 66.710846 109.178047
v 62.738979 66.710861 13.285805
v 62.738979 -0.000000 0.463851
v 62.738979 78.561646 13.285807
v 62.738979 90.843277 13.285810
v 62.738979 102.694000 13.285811
v 62.738979 114.975723 13.285813
v 62.738976 -0.000020 122.000000
v 62.738976 114.975708 109.178055
v 62.738976 102.693985 109.178055
v 62.738976 90.843262 109.178055
v 62.738976 78.561630 109.178055
v 62.738976 333.474670 109.178093
v 62.738976 344.999908 122.000053
v 62.738979 344.999939 0.463907
v 62.738979 333.474701 13.285849
v -184.000000 126.826515 -108.250290
v -184.000000 126.826500 -12.358061
v -184.000000 139.108337 -12.358059
v -184.000000 139.108353 -108.250290
v -184.000000 150.959045 -108.250290
v -184.000000 150.959030 -12.358057
v -184.000000 163.240616 -12.358055
v -184.000000 163.240631 -108.250290
v -184.000000 175.091400 -108.250282
v -184.000000 175.091385 -12.358053
v -184.000000 187.372986 -108.250282
v -184.000000 187.372971 -12.358051
v -184.000000 199.223770 -108.250282
v -184.000000 199.223755 -12.358049
v -184.000000 211.505325 -12.358047
v -184.000000 211.505341 -108.250275
v -184.000000 223.356049 -108.250275
v -184.000000 223.356033 -12.358046
v -184.000000 235.637863 -108.250275
v -184.000000 235.637848 -12.358044
v -184.000000 247.488632 -108.250275
v -184.000000 247.488617 -12.358042
v -184.000000 259.770416 -108.250267
v -184.000000 259.770386 -12.358040
v -184.000000 271.621094 -108.250267
v -184.000000 271.621063 -12.358038
v -184.000000 283.902740 -12.358035
v -184.000000 283.902771 -108.250267
v -184.000000 295.753540 -108.250267
v -184.000000 295.753510 -12.358033
v -184.000000 308.035339 -108.250259
v -184.000000 308.035309 -12.358031
v -184.000000 66.710861 -12.358071
v -184.000000 66.710876 -108.250305
v -184.000000 0.000020 -121.072273
v -184.000000 78.561661 -108.250298
v -184.000000 90.843292 -108.250298
v -184.000000 102.694016 -108.250298
v -184.000000 114.975739 -108.250298
v -184.000000 -0.000000 0.463878
v -184.000000 114.975723 -12.358063
v -184.000000 102.694000 -12.358065
v -184.000000 90.843277 -12.358067
v -184.000000 78.561646 -12.358069
v -184.000000 333.474701 -12.358027
v -184.000000 344.999939 0.463934
v -184.000000 344.999969 -121.072220
v -184.000000 333.474731 -108.250259
v 75.531898 295.753479 119.088852
v 171.207077 295.753479 119.088852
v 171.207077 295.753479 122.000023
v 75.531898 295.753479 122.000023
v 171.207077 283.902710 119.088852
v 171.207077 283.902710 122.000023
v 75.531898 283.902710 119.088852
v 75.531898 283.902710 122.000023
v 75.531898 333.474670 119.088860
v 171.207077 333.474670 119.088860
v 171.207077 333.474670 122.000031
v 75.531898 333.474670 122.000031
v 171.207077 308.035278 119.088860
v 171.207077 308.035278 122.000031
v 75.531898 308.035278 119.088860
v 75.531898 308.035278 122.000031
v 85.140434 1.898224 121.999977
v 85.140434 1.898225 119.088806
v 67.997871 1.898225 119.088806
v 67.997871 1.898224 121.999977
v 85.140434 47.999611 121.999985
v 85.140434 47.999611 119.088814
v 67.997871 47.999611 121.999985
v 67.997871 47.999611 119.088814
v 178.741196 1.898224 121.999977
v 178.741196 1.898225 119.088806
v 161.598709 1.898225 119.088806
v 161.598709 1.898224 121.999977
v 178.741196 47.999611 121.999985
v 178.741196 47.999611 119.088814
v 161.598709 47.999611 121.999985
v 161.598709 47.999611 119.088814
v 142.435074 1.898224 121.999977
v 142.435074 1.898225 119.088806
v 104.303833 1.898225 119.088806
v 104.303833 1.898224 121.999977
v 142.435074 38.886177 121.999985
v 142.435074 38.886177 119.088814
v 104.303833 38.886177 121.999985
v 104.303833 38.886177 119.088814
v 142.435074 38.886177 121.999985
v 142.435074 38.886177 119.088814
v 104.303833 38.886177 119.088814
v 104.303833 38.886177 121.999985
v 142.435074 47.999611 121.999985
v 142.435074 47.999611 119.088814
v 104.303833 47.999611 121.999985
v 104.303833 47.999611 119.088814
v 160.728439 1.898224 121.999977
v 160.728439 1.898225 119.088806
v 143.585938 1.898225 119.088806
v 143.585938 1.898224 121.999977
v 160.728439 47.999611 121.999985
v 160.728439 47.999611 119.088814
v 143.585938 47.999611 121.999985
v 143.585938 47.999611 119.088814
v 103.152977 1.898224 121.999977
v 103.152977 1.898225 119.088806
v 86.010384 1.898225 119.088806
v 86.010384 1.898224 121.999977
v 103.152977 47.999611 121.999985
v 103.152977 47.999611 119.088814
v 86.010384 47.999611 121.999985
v 86.010384 47.999611 119.088814
v 75.531898 78.561615 119.088821
v 171.207077 78.561615 119.088821
v 171.207077 78.561615 121.999992
v 75.531898 78.561615 121.999992
v 171.207077 66.710831 119.088814
v 171.207077 66.710831 121.999985
v 75.531898 66.710831 119.088814
v 75.531898 66.710831 121.999985
v 75.531898 102.693947 119.088821
v 171.207077 102.693947 119.088821
v 171.207077 102.693947 121.999992
v 75.531898 102.693947 121.999992
v 171.207077 90.843254 119.088821
v 171.207077 90.843254 121.999992
v 75.531898 90.843254 119.088821
v 75.531898 90.843254 121.999992
v 75.531898 126.826477 119.088829
v 171.207077 126.826477 119.088829
v 171.207077 126.826477 122.000000
v 75.531898 126.826477 122.000000
v 171.207077 114.975700 119.088821
v 171.207077 114.975700 121.999992
v 75.531898 114.975700 119.088821
v 75.531898 114.975700 121.999992
v 75.531898 150.959015 119.088829
v 171.207077 150.959015 119.088829
v 171.207077 150.959015 122.000000
v 75.531898 150.959015 122.000000
v 171.207077 139.108322 119.088829
v 171.207077 139.108322 122.000000
v 75.531898 139.108322 119.088829
v 75.531898 139.108322 122.000000
v 75.531898 175.091370 119.088837
v 171.207077 175.091370 119.088837
v 171.207077 175.091370 122.000008
v 75.531898 175.091370 122.000008
v 171.207077 163.240601 119.088829
v 171.207077 163.240601 122.000000
v 75.531898 163.240601 119.088829
v 75.531898 163.240601 122.000000
v 75.531898 199.223740 119.088837
v 171.207077 199.223740 119.088837
v 171.207077 199.223740 122.000008
v 75.531898 199.223740 122.000008
v 171.207077 187.372955 119.088837
v 171.207077 187.372955 122.000008
v 75.531898 187.372955 119.088837
v 75.531898 187.372955 122.000008
v 75.531898 223.356003 119.088844
v 171.207077 223.356003 119.088844
v 171.207077 223.356003 122.000015
v 75.531898 223.356003 122.000015
v 171.207077 211.505310 119.088844
v 171.207077 211.505310 122.000015
v 75.531898 211.505310 119.088844
v 75.531898 211.505310 122.000015
v 75.531898 247.488602 119.088844
v 171.207077 247.488602 119.088844
v 171.207077 247.488602 122.000015
v 75.531898 247.488602 122.000015
v 171.207077 235.637802 119.088844
v 171.207077 235.637802 122.000015
v 75.531898 235.637802 119.088844
v 75.531898 235.637802 122.000015
v 75.531898 271.621033 119.088852
v 171.207077 271.621033 119.088852
v 171.207077 271.621033 122.000023
v 75.531898 271.621033 122.000023
v 171.207077 259.770355 119.088852
v 171.207077 259.770355 122.000023
v 75.531898 259.770355 119.088852
v 75.531898 259.770355 122.000023
v 181.095413 333.474731 108.465881
v 181.095413 333.474792 -108.465759
v 183.999985 333.474792 -108.465759
v 184.000000 333.474731 108.465881
v 181.095413 308.035370 -108.465759
v 183.999985 308.035370 -108.465759
v 181.095413 308.035309 108.465881
v 184.000000 308.035309 108.465881
v 181.095413 78.561638 108.465843
v 181.095413 78.561668 -108.465797
v 183.999985 78.561668 -108.465797
v 184.000000 78.561638 108.465843
v 181.095413 66.710892 -108.465805
v 183.999985 66.710892 -108.465805
v 181.095413 66.710861 108.465836
v 184.000000 66.710861 108.465836
v 181.095413 102.694000 108.465843
v 181.095413 102.694031 -108.465797
v 183.999985 102.694031 -108.465797
v 184.000000 102.694000 108.465843
v 181.095413 90.843338 -108.465797
v 183.999985 90.843338 -108.465797
v 181.095413 90.843307 108.465843
v 184.000000 90.843307 108.465843
v 181.095413 126.826523 108.465851
v 181.095413 126.826553 -108.465790
v 183.999985 126.826553 -108.465790
v 184.000000 126.826523 108.465851
v 181.095413 114.975769 -108.465797
v 183.999985 114.975769 -108.465797
v 181.095413 114.975739 108.465843
v 184.000000 114.975739 108.465843
v 181.095413 150.959030 108.465851
v 181.095413 150.959061 -108.465790
v 183.999985 150.959061 -108.465790
v 184.000000 150.959030 108.465851
v 181.095413 139.108383 -108.465790
v 183.999985 139.108383 -108.465790
v 181.095413 139.108353 108.465851
v 184.000000 139.108353 108.465851
v 181.095413 175.091400 108.465858
v 181.095413 175.091431 -108.465782
v 183.999985 175.091431 -108.465782
v 184.000000 175.091400 108.465858
v 181.095413 163.240646 -108.465790
v 183.999985 163.240646 -108.465790
v 181.095413 163.240616 108.465851
v 184.000000 163.240616 108.465851
v 181.095413 199.223755 108.465858
v 181.095413 199.223785 -108.465782
v 183.999985 199.223785 -108.465782
v 184.000000 199.223755 108.465858
v 181.095413 187.373001 -108.465782
v 183.999985 187.373001 -108.465782
v 181.095413 187.372971 108.465858
v 184.000000 187.372971 108.465858
v 181.095413 223.356018 108.465866
v 181.095413 223.356049 -108.465775
v 183.999985 223.356049 -108.465775
v 184.000000 223.356018 108.465866
v 181.095413 211.505356 -108.465775
v 183.999985 211.505356 -108.465775
v 181.095413 211.505325 108.465866
v 184.000000 211.505325 108.465866
v 181.095413 247.488647 108.465866
v 181.095413 247.488678 -108.465775
v 183.999985 247.488678 -108.465775
v 184.000000 247.488647 108.465866
v 181.095413 235.637894 -108.465775
v 183.999985 235.637894 -108.465775
v 181.095413 235.637863 108.465866
v 184.000000 235.637863 108.465866
v 181.095413 271.621063 108.465874
v 181.095413 271.621124 -108.465767
v 183.999985 271.621124 -108.465767
v 184.000000 271.621063 108.465874
v 181.095413 259.770416 -108.465767
v 183.999985 259.770416 -108.465767
v 181.095413 259.770355 108.465874
v 184.000000 259.770355 108.465874
v 181.095413 295.753479 108.465874
v 181.095413 295.753540 -108.465767
v 183.999985 295.753540 -108.465767
v 184.000000 295.753479 108.465874
v 181.095413 283.902771 -108.465767
v 183.999985 283.902771 -108.465767
v 181.095413 283.902710 108.465874
v 184.000000 283.902710 108.465874
v 167.218674 340.637146 -114.970802
v -177.029007 340.637085 -114.102959
v -177.029007 340.637054 -6.522868
v 59.835953 340.637054 -6.522868
v 177.029007 340.637085 115.013222
v 177.028992 340.637146 -105.041168
v 69.709984 340.637054 3.342396
v 69.709976 340.637024 115.013237
v 64.774895 344.999939 -1.592181
v 59.835953 344.999939 -6.522867
v -177.029007 344.999969 -114.102959
v 167.218674 345.000031 -114.970802
v -177.029007 344.999939 -6.522867
v 177.028992 345.000031 -105.041168
v 177.029007 344.999969 115.013222
v 64.774895 344.999939 -1.592198
v 69.709984 344.999939 3.342397
v 69.709976 344.999908 115.013237
v 172.114182 345.000031 -109.996239
v 172.114182 345.000031 -109.996239
v -117.483444 1.898262 0.463896
v -117.483444 1.898262 -2.447279
v -134.625977 1.898262 -2.447279
v -134.625977 1.898262 0.463896
v -117.483444 47.999638 0.463904
v -117.483444 47.999638 -2.447271
v -134.625977 47.999638 0.463904
v -134.625977 47.999638 -2.447271
v -171.207108 319.401245 0.463948
v -171.207108 319.401245 -2.447227
v 49.946075 319.401245 -2.447227
v 49.946075 319.401245 0.463948
v -171.207108 99.790085 0.463912
v -171.207108 75.543762 0.463908
v -171.207108 75.543762 -2.447267
v -171.207108 99.790085 -2.447263
v 49.946075 75.543762 0.463908
v 49.946075 75.543762 -2.447267
v 49.946075 295.703949 0.463944
v 49.946075 295.703949 -2.447231
v -41.564785 1.898262 0.463896
v -41.564785 1.898262 -2.447279
v -79.696007 1.898262 -2.447279
v -79.696007 1.898262 0.463896
v -41.564785 38.886208 0.463902
v -41.564785 38.886208 -2.447273
v -79.696007 38.886208 0.463902
v -79.696007 38.886208 -2.447273
v -41.564785 38.886208 0.463902
v -41.564785 38.886208 -2.447273
v -79.696007 38.886208 -2.447273
v -79.696007 38.886208 0.463902
v -41.564785 47.999638 0.463904
v -41.564785 47.999638 -2.447271
v -79.696007 47.999638 0.463904
v -79.696007 47.999638 -2.447271
v -99.173431 1.898262 0.463896
v -99.173431 1.898262 -2.447279
v -116.315971 1.898262 -2.447279
v -116.315971 1.898262 0.463896
v -99.173431 47.999638 0.463904
v -99.173431 47.999638 -2.447271
v -116.315971 47.999638 0.463904
v -116.315971 47.999638 -2.447271
v -4.944945 1.898262 0.463896
v -4.944945 1.898262 -2.447279
v -22.087429 1.898262 -2.447279
v -22.087429 1.898262 0.463896
v -4.944945 47.999638 0.463904
v -4.944945 47.999638 -2.447271
v -22.087429 47.999638 0.463904
v -22.087429 47.999638 -2.447271
v -23.254866 1.898262 0.463896
v -23.254866 1.898262 -2.447279
v -40.397331 1.898262 -2.447279
v -40.397331 1.898262 0.463896
v -23.254866 47.999638 0.463904
v -23.254866 47.999638 -2.447271
v -40.397331 47.999638 0.463904
v -40.397331 47.999638 -2.447271
v -80.863426 1.898262 0.463896
v -80.863426 1.898262 -2.447279
v -98.006035 1.898262 -2.447279
v -98.006035 1.898262 0.463896
v -80.863426 47.999638 0.463904
v -80.863426 47.999638 -2.447271
v -98.006035 47.999638 0.463904
v -98.006035 47.999638 -2.447271
v 31.674931 1.898262 0.463896
v 31.674931 1.898262 -2.447279
v 14.532464 1.898262 -2.447279
v 14.532464 1.898262 0.463896
v 31.674931 47.999638 0.463904
v 31.674931 47.999638 -2.447271
v 14.532464 47.999638 0.463904
v 14.532464 47.999638 -2.447271
v 13.364958 1.898262 0.463896
v 13.364958 1.898262 -2.447279
v -3.777545 1.898262 -2.447279
v -3.777545 1.898262 0.463896
v 13.364958 47.999638 0.463904
v 13.364958 47.999638 -2.447271
v -3.777545 47.999638 0.463904
v -3.777545 47.999638 -2.447271
v -135.793381 1.898262 0.463896
v -135.793381 1.898262 -2.447279
v -152.935989 1.898262 -2.447279
v -152.935989 1.898262 0.463896
v -135.793381 47.999638 0.463904
v -135.793381 47.999638 -2.447271
v -152.935989 47.999638 0.463904
v -152.935989 47.999638 -2.447271
v -171.207108 102.688713 -2.447262
v -171.207108 102.688713 0.463913
v 49.946075 99.790085 -2.447263
v 49.946075 99.790085 0.463912
v 49.946075 102.688713 -2.447262
v 49.946075 102.688713 0.463913
v -171.207108 123.905884 -2.447259
v -171.207108 123.905884 0.463916
v 49.946075 123.905884 -2.447259
v 49.946075 123.905884 0.463916
v -171.207108 126.804512 -2.447258
v -171.207108 126.804512 0.463917
v 49.946075 126.804512 -2.447258
v 49.946075 126.804512 0.463917
v -171.207108 148.021790 -2.447255
v -171.207108 148.021790 0.463920
v 49.946075 148.021790 -2.447255
v 49.946075 148.021790 0.463920
v -171.207108 150.920410 -2.447254
v -171.207108 150.920410 0.463921
v 49.946075 150.920410 -2.447254
v 49.946075 150.920410 0.463921
v -171.207108 172.137817 -2.447251
v -171.207108 172.137817 0.463924
v 49.946075 172.137817 -2.447251
v 49.946075 172.137817 0.463924
v -171.207108 175.036438 -2.447250
v -171.207108 175.036438 0.463925
v 49.946075 175.036438 -2.447250
v 49.946075 175.036438 0.463925
v -171.207108 196.340973 -2.447247
v -171.207108 196.340988 0.463928
v 49.946075 196.340988 -2.447247
v 49.946075 196.340973 0.463928
v -171.207108 199.239594 -2.447247
v -171.207108 199.239624 0.463928
v 49.946075 199.239624 -2.447247
v 49.946075 199.239594 0.463928
v -171.207108 220.456787 -2.447243
v -171.207108 220.456802 0.463932
v 49.946075 220.456802 -2.447243
v 49.946075 220.456787 0.463932
v -171.207108 223.355423 -2.447242
v -171.207108 223.355423 0.463932
v 49.946075 223.355423 -2.447242
v 49.946075 223.355423 0.463932
v -171.207108 244.573029 -2.447239
v -171.207108 244.573013 0.463936
v 49.946075 244.573013 -2.447239
v 49.946075 244.573029 0.463936
v -171.207108 247.471634 -2.447239
v -171.207108 247.471634 0.463936
v 49.946075 247.471634 -2.447239
v 49.946075 247.471634 0.463936
v -171.207108 268.689148 -2.447235
v -171.207108 268.689148 0.463940
v 49.946075 268.689148 -2.447235
v 49.946075 268.689148 0.463940
v -171.207108 271.587769 -2.447235
v -171.207108 271.587769 0.463940
v 49.946075 271.587769 -2.447235
v 49.946075 271.587769 0.463940
v -171.207108 292.805298 -2.447231
v -171.207108 292.805298 0.463944
v 49.946075 292.805298 -2.447231
v 49.946075 292.805298 0.463944
v -171.207108 295.703949 -2.447231
v -171.207108 295.703949 0.463944
v 65.643562 78.561646 13.285807
v 65.643562 78.561630 109.178055
v 62.738976 78.561630 109.178055
v 62.738979 78.561646 13.285807
v 65.643562 66.710846 109.178047
v 62.738976 66.710846 109.178047
v 65.643562 66.710861 13.285805
v 62.738979 66.710861 13.285805
v 65.643562 102.694000 13.285811
v 65.643562 102.693985 109.178055
v 62.738976 102.693985 109.178055
v 62.738979 102.694000 13.285811
v 65.643562 90.843262 109.178055
v 62.738976 90.843262 109.178055
v 65.643562 90.843277 13.285810
v 62.738979 90.843277 13.285810
v 65.643562 126.826500 13.285815
v 65.643562 126.826485 109.178062
v 62.738976 126.826485 109.178062
v 62.738979 126.826500 13.285815
v 65.643562 114.975708 109.178055
v 62.738976 114.975708 109.178055
v 65.643562 114.975723 13.285813
v 62.738979 114.975723 13.285813
v 65.643562 150.959030 13.285819
v 65.643562 150.959015 109.178062
v 62.738976 150.959015 109.178062
v 62.738979 150.959030 13.285819
v 65.643562 139.108322 109.178062
v 62.738976 139.108322 109.178062
v 65.643562 139.108337 13.285817
v 62.738979 139.108337 13.285817
v 65.643562 175.091385 13.285823
v 65.643562 175.091370 109.178070
v 62.738976 175.091370 109.178070
v 62.738979 175.091385 13.285823
v 65.643562 163.240601 109.178062
v 62.738976 163.240601 109.178062
v 65.643562 163.240616 13.285821
v 62.738979 163.240616 13.285821
v 65.643562 199.223755 13.285827
v 65.643562 199.223740 109.178070
v 62.738976 199.223740 109.178070
v 62.738979 199.223755 13.285827
v 65.643562 187.372955 109.178070
v 62.738976 187.372955 109.178070
v 65.643562 187.372971 13.285825
v 62.738979 187.372971 13.285825
v 65.643562 223.356033 13.285830
v 65.643562 223.356018 109.178078
v 62.738976 223.356018 109.178078
v 62.738979 223.356033 13.285830
v 65.643562 211.505310 109.178078
v 62.738976 211.505310 109.178078
v 65.643562 211.505325 13.285829
v 62.738979 211.505325 13.285829
v 65.643562 247.488617 13.285834
v 65.643562 247.488602 109.178078
v 62.738976 247.488602 109.178078
v 62.738979 247.488617 13.285834
v 65.643562 235.637833 109.178078
v 62.738976 235.637833 109.178078
v 65.643562 235.637848 13.285832
v 62.738979 235.637848 13.285832
v 65.643562 271.621063 13.285838
v 65.643562 271.621033 109.178085
v 62.738976 271.621033 109.178085
v 62.738979 271.621063 13.285838
v 65.643562 259.770355 109.178085
v 62.738976 259.770355 109.178085
v 65.643562 259.770386 13.285836
v 62.738979 259.770386 13.285836
v 65.643562 295.753510 13.285843
v 65.643562 295.753479 109.178085
v 62.738976 295.753479 109.178085
v 62.738979 295.753510 13.285843
v 65.643562 283.902710 109.178085
v 62.738976 283.902710 109.178085
v 65.643562 283.902740 13.285841
v 62.738979 283.902740 13.285841
v -181.095413 78.561661 -108.250298
v -181.095413 78.561646 -12.358069
v -184.000000 78.561646 -12.358069
v -184.000000 78.561661 -108.250298
v -181.095413 66.710861 -12.358071
v -184.000000 66.710861 -12.358071
v -181.095413 66.710876 -108.250305
v -184.000000 66.710876 -108.250305
v -181.095413 102.694016 -108.250298
v -181.095413 102.694000 -12.358065
v -184.000000 102.694000 -12.358065
v -184.000000 102.694016 -108.250298
v -181.095413 90.843277 -12.358067
v -184.000000 90.843277 -12.358067
v -181.095413 90.843292 -108.250298
v -184.000000 90.843292 -108.250298
v -181.095413 126.826515 -108.250290
v -181.095413 126.826500 -12.358061
v -184.000000 126.826500 -12.358061
v -184.000000 126.826515 -108.250290
v -181.095413 114.975723 -12.358063
v -184.000000 114.975723 -12.358063
v -181.095413 114.975739 -108.250298
v -184.000000 114.975739 -108.250298
v -181.095413 150.959045 -108.250290
v -181.095413 150.959030 -12.358057
v -184.000000 150.959030 -12.358057
v -184.000000 150.959045 -108.250290
v -181.095413 139.108337 -12.358059
v -184.000000 139.108337 -12.358059
v -181.095413 139.108353 -108.250290
v -184.000000 139.108353 -108.250290
v -181.095413 175.091400 -108.250282
v -181.095413 175.091385 -12.358053
v -184.000000 175.091385 -12.358053
v -184.000000 175.091400 -108.250282
v -181.095413 163.240616 -12.358055
v -184.000000 163.240616 -12.358055
v -181.095413 163.240631 -108.250290
v -184.000000 163.240631 -108.250290
v -181.095413 199.223770 -108.250282
v -181.095413 199.223755 -12.358049
v -184.000000 199.223755 -12.358049
v -184.000000 199.223770 -108.250282
v -181.095413 187.372971 -12.358051
v -184.000000 187.372971 -12.358051
v -181.095413 187.372986 -108.250282
v -184.000000 187.372986 -108.250282
v -181.095413 223.356049 -108.250275
v -181.095413 223.356033 -12.358046
v -184.000000 223.356033 -12.358046
v -184.000000 223.356049 -108.250275
v -181.095413 211.505325 -12.358047
v -184.000000 211.505325 -12.358047
v -181.095413 211.505341 -108.250275
v -184.000000 211.505341 -108.250275
v -181.095413 247.488632 -108.250275
v -181.095413 247.488617 -12.358042
v -184.000000 247.488617 -12.358042
v -184.000000 247.488632 -108.250275
v -181.095413 235.637848 -12.358044
v -184.000000 235.637848 -12.358044
v -181.095413 235.637863 -108.250275
v -184.000000 235.637863 -108.250275
v -181.095413 271.621094 -108.250267
v -181.095413 271.621063 -12.358038
v -184.000000 271.621063 -12.358038
v -184.000000 271.621094 -108.250267
v -181.095413 259.770386 -12.358040
v -184.000000 259.770386 -12.358040
v -181.095413 259.770416 -108.250267
v -184.000000 259.770416 -108.250267
v -181.095413 295.753540 -108.250267
v -181.095413 295.753510 -12.358033
v -184.000000 295.753510 -12.358033
v -184.000000 295.753540 -108.250267
v -181.095413 283.902740 -12.358035
v -184.000000 283.902740 -12.358035
v -181.095413 283.902771 -108.250267
v -184.000000 283.902771 -108.250267
v 64.774895 340.637054 -1.592181
v 172.114182 340.637146 -109.996239
v 172.114182 340.637146 -109.996239
v 64.774895 340.637054 -1.592198
vt 0.189264 0.240170
vt 0.191748 0.240170
vt 0.189264 0.319995
vt 0.191748 0.339663
vt 0.189264 0.339663
vt 0.228743 0.240170
vt 0.230622 0.240170
vt 0.228743 0.339663
vt 0.230622 0.339663
vt 0.065614 0.240170
vt 0.067492 0.240170
vt 0.065614 0.339663
vt 0.067492 0.339663
vt 0.104488 0.240170
vt 0.106972 0.240170
vt 0.104488 0.339663
vt 0.106972 0.319995
vt 0.106972 0.339663
vt 0.044878 0.380044
vt 0.028619 0.339663
vt 0.251358 0.380044
vt 0.267617 0.339663
vt 0.044878 0.432125
vt 0.044878 0.405620
vt 0.251358 0.405620
vt 0.251358 0.432125
vt 0.044878 0.484206
vt 0.044878 0.457701
vt 0.251358 0.457701
vt 0.251358 0.484206
vt 0.044878 0.536288
vt 0.044878 0.509782
vt 0.251358 0.509782
vt 0.251358 0.536288
vt 0.044878 0.588368
vt 0.044878 0.561863
vt 0.251358 0.561863
vt 0.251358 0.588368
vt 0.044878 0.640449
vt 0.044878 0.613944
vt 0.251358 0.613944
vt 0.251358 0.640449
vt 0.044878 0.692530
vt 0.044878 0.666025
vt 0.251358 0.666025
vt 0.251358 0.692530
vt 0.044878 0.744611
vt 0.044878 0.718105
vt 0.251358 0.718105
vt 0.251358 0.744611
vt 0.044878 0.796692
vt 0.044878 0.770187
vt 0.251358 0.770187
vt 0.251358 0.796692
vt 0.044878 0.900854
vt 0.044878 0.874349
vt 0.251358 0.874349
vt 0.251358 0.900854
vt 0.044878 0.848773
vt 0.044878 0.822268
vt 0.251358 0.822268
vt 0.251358 0.848773
vt 0.028619 0.240170
vt 0.017269 0.236073
vt 0.278967 0.236073
vt 0.267617 0.240170
vt 0.278967 0.980629
vt 0.251358 0.955756
vt 0.017269 0.980629
vt 0.044878 0.955756
vt 0.314086 0.770186
vt 0.314086 0.796692
vt 0.284877 0.980629
vt 0.782253 0.718105
vt 0.782253 0.744611
vt 0.314086 0.744611
vt 0.782253 0.509782
vt 0.782253 0.536288
vt 0.314086 0.536288
vt 0.782253 0.770186
vt 0.811462 0.980629
vt 0.782253 0.822268
vt 0.782253 0.796692
vt 0.782253 0.405620
vt 0.782253 0.380044
vt 0.811462 0.236073
vt 0.782253 0.457701
vt 0.782253 0.432125
vt 0.782253 0.666025
vt 0.782253 0.640449
vt 0.782253 0.692530
vt 0.314086 0.718105
vt 0.782253 0.848773
vt 0.314086 0.848773
vt 0.314086 0.405620
vt 0.314086 0.432125
vt 0.284877 0.236073
vt 0.782253 0.900854
vt 0.782253 0.874348
vt 0.314086 0.380044
vt 0.782253 0.484206
vt 0.782253 0.561863
vt 0.314086 0.561863
vt 0.314086 0.484206
vt 0.314086 0.509782
vt 0.314086 0.588368
vt 0.314086 0.613944
vt 0.314086 0.822268
vt 0.314086 0.874348
vt 0.782253 0.588368
vt 0.314086 0.457701
vt 0.782253 0.613944
vt 0.314086 0.666025
vt 0.314086 0.692530
vt 0.782253 0.955756
vt 0.314086 0.900854
vt 0.314086 0.955756
vt 0.314086 0.640449
vt 0.586361 0.240170
vt 0.588880 0.240170
vt 0.586361 0.319995
vt 0.588880 0.339663
vt 0.586361 0.339663
vt 0.625876 0.240170
vt 0.628395 0.240170
vt 0.625876 0.339663
vt 0.628395 0.339663
vt 0.462033 0.240170
vt 0.464553 0.240170
vt 0.462033 0.339663
vt 0.464553 0.339663
vt 0.501549 0.240170
vt 0.504068 0.240170
vt 0.501549 0.339663
vt 0.504068 0.319995
vt 0.504068 0.339663
vt 0.665391 0.240170
vt 0.667910 0.240170
vt 0.665391 0.339663
vt 0.667910 0.339663
vt 0.704906 0.240170
vt 0.707426 0.240170
vt 0.704906 0.339663
vt 0.707426 0.339663
vt 0.383003 0.240170
vt 0.385522 0.240170
vt 0.383003 0.339663
vt 0.385522 0.339663
vt 0.422518 0.240170
vt 0.425038 0.240170
vt 0.422518 0.339663
vt 0.425038 0.339663
vt 0.346007 0.240170
vt 0.744421 0.240170
vt 0.744421 0.339663
vt 0.306575 0.399107
vt 0.346007 0.339663
vt 0.783853 0.399107
vt 0.783853 0.925383
vt 0.306575 0.925383
vt 0.576842 0.509782
vt 0.783790 0.509782
vt 0.783790 0.536288
vt 0.576842 0.536288
vt 0.576842 0.561863
vt 0.783790 0.561863
vt 0.783790 0.588368
vt 0.576842 0.588368
vt 0.576842 0.613944
vt 0.783790 0.613944
vt 0.576842 0.640449
vt 0.783790 0.640449
vt 0.576842 0.666025
vt 0.783790 0.666025
vt 0.783790 0.692530
vt 0.576842 0.692530
vt 0.576842 0.718105
vt 0.783790 0.718105
vt 0.576842 0.744611
vt 0.783790 0.744611
vt 0.576842 0.770187
vt 0.783790 0.770187
vt 0.576842 0.796692
vt 0.783790 0.796692
vt 0.576842 0.822268
vt 0.783790 0.822268
vt 0.783790 0.848773
vt 0.576842 0.848773
vt 0.576842 0.874349
vt 0.783790 0.874349
vt 0.576842 0.900854
vt 0.783790 0.900854
vt 0.783790 0.380044
vt 0.576842 0.380044
vt 0.549171 0.236073
vt 0.576842 0.405620
vt 0.576842 0.432125
vt 0.576842 0.457701
vt 0.576842 0.484206
vt 0.783790 0.484206
vt 0.783790 0.457701
vt 0.783790 0.432125
vt 0.783790 0.405620
vt 0.783790 0.955756
vt 0.549171 0.980629
vt 0.576842 0.955756
vt 0.314551 0.509782
vt 0.521499 0.509782
vt 0.521499 0.536288
vt 0.314551 0.536288
vt 0.314551 0.561863
vt 0.521499 0.561863
vt 0.521499 0.588368
vt 0.314551 0.588368
vt 0.314551 0.613944
vt 0.521499 0.613944
vt 0.314551 0.640449
vt 0.521499 0.640449
vt 0.314551 0.666025
vt 0.521499 0.666025
vt 0.521499 0.692530
vt 0.314551 0.692530
vt 0.314551 0.718105
vt 0.521499 0.718105
vt 0.314551 0.744611
vt 0.521499 0.744611
vt 0.314551 0.770187
vt 0.521499 0.770187
vt 0.314551 0.796692
vt 0.521499 0.796692
vt 0.314551 0.822268
vt 0.521499 0.822268
vt 0.521499 0.848773
vt 0.314551 0.848773
vt 0.314551 0.874349
vt 0.521499 0.874349
vt 0.314551 0.900854
vt 0.521499 0.900854
vt 0.521499 0.380044
vt 0.314551 0.380044
vt 0.286880 0.236073
vt 0.314551 0.405620
vt 0.314551 0.432125
vt 0.314551 0.457701
vt 0.314551 0.484206
vt 0.521499 0.484206
vt 0.521499 0.457701
vt 0.521499 0.432125
vt 0.521499 0.405620
vt 0.521499 0.955756
vt 0.286880 0.980629
vt 0.314551 0.955756
vt 0.795421 0.603755
vt 0.795421 0.744509
vt 0.654667 0.744509
vt 0.654667 0.603755
vt 0.826137 0.974164
vt 0.827427 0.462567
vt 0.987305 0.462567
vt 0.826137 0.647135
vt 0.985627 0.974164
vt 0.554158 0.720773
vt 0.543499 0.731414
vt 0.549764 0.716336
vt 0.017269 0.978627
vt 0.032313 0.963586
vt 0.032313 0.731414
vt 0.796417 0.944029
vt 0.811462 0.454045
vt 0.564809 0.710123
vt 0.549764 0.454045
vt 0.564809 0.469123
vt 0.785811 0.954723
vt 0.775245 0.965459
vt 0.306675 0.145312
vt 0.306675 0.221605
vt 0.019091 0.145312
vt 0.017269 0.716336
vt 0.796418 0.469123
vt 0.306575 0.457689
vt 0.306575 0.451434
vt 0.783853 0.451434
vt 0.306575 0.509734
vt 0.306575 0.503479
vt 0.783853 0.503479
vt 0.306575 0.561780
vt 0.306575 0.555524
vt 0.783853 0.555524
vt 0.306575 0.613825
vt 0.306575 0.607570
vt 0.783853 0.607570
vt 0.306575 0.666059
vt 0.306575 0.659803
vt 0.783853 0.659803
vt 0.306575 0.718104
vt 0.306575 0.711848
vt 0.783853 0.711848
vt 0.306575 0.770150
vt 0.306575 0.763894
vt 0.783853 0.763894
vt 0.306575 0.822196
vt 0.306575 0.815940
vt 0.783853 0.815940
vt 0.306575 0.874242
vt 0.306575 0.867986
vt 0.783853 0.867986
vt 0.903286 0.734029
vt 0.941568 0.957584
vt 0.931352 0.959376
vt 0.893086 0.735912
vt 0.921138 0.961177
vt 0.032313 0.454044
vt 0.032313 0.444629
vt 0.775245 0.444629
vt 0.562247 0.980629
vt 0.562247 0.971213
vt 0.794419 0.971213
vt 0.285232 0.980629
vt 0.285232 0.971213
vt 0.796417 0.980629
vt 0.775245 0.454045
vt 0.785811 0.454045
vt 0.274573 0.980629
vt 0.274573 0.971213
vt 0.263922 0.980629
vt 0.263922 0.971213
vt 0.032313 0.980629
vt 0.032313 0.971213
vt 0.321477 0.980629
vt 0.321477 0.971213
vt 0.796383 0.980629
vt 0.299956 0.980629
vt 0.299956 0.971213
vt 0.540956 0.971213
vt 0.785811 0.444629
vt 0.796417 0.454045
vt 0.308035 0.100151
vt 0.308035 0.135692
vt 0.020452 0.100151
vt 0.308035 0.100152
vt 0.308035 0.135693
vt 0.020452 0.100152
vt 0.681732 0.018456
vt 0.681732 0.091172
vt 0.018488 0.091172
vt 0.681732 0.018457
vt 0.681732 0.082088
vt 0.018488 0.082088
vt 0.681732 0.018195
vt 0.681732 0.081826
vt 0.018488 0.081826
vt 0.681732 0.017933
vt 0.681732 0.018196
vt 0.681732 0.018194
vt 0.681732 0.089525
vt 0.018488 0.089525
vt 0.925946 0.244348
vt 0.874222 0.244348
vt 0.874222 0.000742
vt 0.925946 0.000742
vt 0.981363 0.296761
vt 0.981363 0.438913
vt 0.834818 0.438913
vt 0.959829 0.279579
vt 0.848705 0.279579
vt 0.848705 0.253020
vt 0.925945 0.000742
vt 0.925945 0.244348
vt 0.019742 0.221605
vt 0.021103 0.135692
vt 0.021103 0.135693
vt 0.874221 0.244348
vt 0.874221 0.000742
vt 0.959829 0.253020
vt 0.671687 0.100151
vt 0.671687 0.135692
vt 0.671687 0.100152
vt 0.670326 0.145312
vt 0.670326 0.221605
vt 0.987305 0.814580
vt 0.985627 0.808207
vt 0.019091 0.221605
vt 0.783853 0.457689
vt 0.783853 0.509734
vt 0.783853 0.561780
vt 0.783853 0.613825
vt 0.783853 0.666059
vt 0.783853 0.718104
vt 0.783853 0.770150
vt 0.783853 0.822196
vt 0.783853 0.874242
vt 0.882879 0.737754
vt 0.794419 0.980629
vt 0.796417 0.971213
vt 0.796383 0.971213
vt 0.540956 0.980629
vt 0.796417 0.444629
vt 0.020452 0.135692
vt 0.020452 0.135693
vt 0.018488 0.018456
vt 0.018488 0.018457
vt 0.018488 0.018195
vt 0.018488 0.017933
vt 0.018488 0.018196
vt 0.018488 0.018194
vt 0.834818 0.296761
vt 0.019742 0.145312
vt 0.021103 0.100151
vt 0.021103 0.100152
vn 0.000000 -0.000000 1.000000
vn 0.000001 -0.000000 1.000000
vn -0.000002 -0.000000 1.000000
vn 0.000000 -0.000001 1.000000
vn 0.000010 -0.000001 1.000000
vn -0.000003 0.000000 1.000000
vn 0.000009 -0.000001 1.000000
vn 0.000007 -0.000001 1.000000
vn 0.000005 -0.000001 1.000000
vn -0.000001 0.000000 1.000000
vn 0.000004 -0.000001 1.000000
vn 0.000002 -0.000001 1.000000
vn -0.000010 -0.000001 1.000000
vn 0.000003 0.000000 1.000000
vn -0.000009 -0.000001 1.000000
vn 0.000002 0.000000 1.000000
vn -0.000007 -0.000001 1.000000
vn -0.000005 -0.000001 1.000000
vn -0.000004 -0.000001 1.000000
vn -0.000002 -0.000001 1.000000
vn 1.000000 0.000000 0.000000
vn -1.000000 -0.000000 -0.000000
vn -0.000000 -1.000000 -0.000000
vn -0.000000 1.000000 0.000000
vn -0.000000 -0.000000 -1.000000
vn 0.000000 0.000001 -1.000000
vn -0.002521 0.000000 -0.999997
vn -0.000001 1.000000 0.000000
vn 0.000001 1.000000 0.000000
vn -0.000001 1.000000 0.000001
vn -0.000000 1.000000 -0.000010
vn -0.000000 1.000000 0.000005
vn -0.000000 1.000000 -0.000005
vn 0.002521 -0.000000 0.999997
vn -0.712748 0.000000 0.701421
vn 0.706515 0.000000 -0.707698
vn 0.707071 0.000000 -0.707142
vn -0.709985 0.000000 0.704217
vn 0.000000 1.000000 0.000001
vn -0.000001 1.000000 -0.000001
vn 0.000000 1.000000 0.000010
s off
f 1/1/1 2/2/1 3/3/1
f 3/3/2 2/2/2 4/4/2
f 5/5/1 3/3/1 4/4/1
f 6/6/1 7/7/1 8/8/1
f 8/8/1 7/7/1 9/9/1
f 10/10/1 11/11/1 12/12/1
f 12/12/1 11/11/1 13/13/1
f 14/14/1 15/15/1 16/16/1
f 15/15/3 17/17/3 16/16/3
f 16/16/1 17/17/1 18/18/1
f 19/19/1 20/20/1 12/12/1
f 19/19/1 12/12/1 21/21/1
f 12/12/1 13/13/1 21/21/1
f 13/13/1 16/16/1 21/21/1
f 16/16/1 18/18/1 21/21/1
f 18/18/1 5/5/1 21/21/1
f 5/5/1 4/4/1 21/21/1
f 4/4/1 8/8/1 21/21/1
f 8/8/1 9/9/1 21/21/1
f 9/9/1 22/22/1 21/21/1
f 23/23/1 24/24/1 25/25/1
f 23/23/1 25/25/1 26/26/1
f 27/27/1 28/28/1 29/29/1
f 27/27/1 29/29/1 30/30/1
f 31/31/1 32/32/1 33/33/1
f 31/31/1 33/33/1 34/34/1
f 35/35/1 36/36/1 37/37/1
f 35/35/1 37/37/1 38/38/1
f 39/39/1 40/40/1 41/41/1
f 39/39/1 41/41/1 42/42/1
f 43/43/4 44/44/4 45/45/4
f 43/43/4 45/45/4 46/46/4
f 47/47/1 48/48/1 49/49/1
f 47/47/1 49/49/1 50/50/1
f 51/51/4 52/52/4 53/53/4
f 51/51/4 53/53/4 54/54/4
f 55/55/4 56/56/4 57/57/4
f 55/55/4 57/57/4 58/58/4
f 59/59/1 60/60/1 61/61/1
f 59/59/1 61/61/1 62/62/1
f 63/63/1 64/64/1 65/65/1
f 10/10/1 63/63/1 65/65/1
f 11/11/1 10/10/1 65/65/1
f 14/14/1 11/11/1 65/65/1
f 15/15/1 14/14/1 65/65/1
f 1/1/1 15/15/1 65/65/1
f 2/2/1 1/1/1 65/65/1
f 6/6/1 2/2/1 65/65/1
f 7/7/1 6/6/1 65/65/1
f 66/66/1 7/7/1 65/65/1
f 66/66/1 65/65/1 22/22/1
f 22/22/1 65/65/1 67/67/1
f 21/21/1 22/22/1 67/67/1
f 25/25/5 21/21/5 67/67/5
f 26/26/6 25/25/6 67/67/6
f 29/29/6 26/26/6 67/67/6
f 30/30/6 29/29/6 67/67/6
f 33/33/7 30/30/7 67/67/7
f 34/34/3 33/33/3 67/67/3
f 37/37/3 34/34/3 67/67/3
f 38/38/3 37/37/3 67/67/3
f 41/41/8 38/38/8 67/67/8
f 42/42/3 41/41/3 67/67/3
f 45/45/3 42/42/3 67/67/3
f 46/46/9 45/45/9 67/67/9
f 49/49/10 46/46/10 67/67/10
f 50/50/10 49/49/10 67/67/10
f 53/53/10 50/50/10 67/67/10
f 54/54/11 53/53/11 67/67/11
f 61/61/10 54/54/10 67/67/10
f 62/62/10 61/61/10 67/67/10
f 57/57/10 62/62/10 67/67/10
f 58/58/12 57/57/12 67/67/12
f 68/68/1 58/58/1 67/67/1
f 64/64/1 63/63/1 69/69/1
f 63/63/10 20/20/10 69/69/10
f 20/20/1 19/19/1 69/69/1
f 19/19/13 24/24/13 69/69/13
f 24/24/14 23/23/14 69/69/14
f 23/23/14 28/28/14 69/69/14
f 28/28/14 27/27/14 69/69/14
f 27/27/15 32/32/15 69/69/15
f 32/32/16 31/31/16 69/69/16
f 31/31/16 36/36/16 69/69/16
f 36/36/16 35/35/16 69/69/16
f 35/35/17 40/40/17 69/69/17
f 40/40/16 39/39/16 69/69/16
f 39/39/16 44/44/16 69/69/16
f 44/44/18 43/43/18 69/69/18
f 43/43/2 48/48/2 69/69/2
f 48/48/2 47/47/2 69/69/2
f 47/47/2 52/52/2 69/69/2
f 52/52/19 51/51/19 69/69/19
f 51/51/2 60/60/2 69/69/2
f 60/60/2 59/59/2 69/69/2
f 59/59/2 56/56/2 69/69/2
f 56/56/20 55/55/20 69/69/20
f 69/69/1 55/55/1 70/70/1
f 69/69/1 70/70/1 67/67/1
f 70/70/1 68/68/1 67/67/1
f 71/71/21 72/72/21 73/73/21
f 74/74/21 75/75/21 76/76/21
f 78/77/21 79/78/21 80/79/21
f 82/80/21 75/75/21 83/81/21
f 84/82/21 85/83/21 83/81/21
f 86/84/21 87/85/21 88/86/21
f 89/87/21 90/88/21 88/86/21
f 91/89/21 92/90/21 83/81/21
f 74/74/21 93/91/21 83/81/21
f 77/92/21 76/76/21 73/73/21
f 94/93/21 84/82/21 83/81/21
f 84/82/21 94/93/21 95/94/21
f 97/95/21 98/96/21 99/97/21
f 100/98/21 101/99/21 83/81/21
f 102/100/21 99/97/21 88/86/21
f 78/77/21 103/101/21 88/86/21
f 104/102/21 79/78/21 88/86/21
f 80/79/21 105/103/21 99/97/21
f 106/104/21 81/105/21 99/97/21
f 107/106/21 108/107/21 73/73/21
f 96/108/21 95/94/21 73/73/21
f 95/94/21 109/109/21 73/73/21
f 110/110/21 104/102/21 88/86/21
f 75/75/21 74/74/21 83/81/21
f 111/111/21 106/104/21 99/97/21
f 92/90/21 112/112/21 83/81/21
f 93/91/21 91/89/21 83/81/21
f 90/88/21 86/84/21 88/86/21
f 85/83/21 82/80/21 83/81/21
f 104/102/21 110/110/21 107/106/21
f 72/72/21 96/108/21 73/73/21
f 113/113/21 114/114/21 73/73/21
f 110/110/21 88/86/21 112/112/21
f 81/105/21 80/79/21 99/97/21
f 79/78/21 78/77/21 88/86/21
f 115/115/21 100/98/21 83/81/21
f 98/96/21 111/111/21 99/97/21
f 114/114/21 77/92/21 73/73/21
f 116/116/21 117/117/21 73/73/21
f 118/118/21 113/113/21 73/73/21
f 82/80/21 85/83/21 72/72/21
f 76/76/21 71/71/21 73/73/21
f 112/112/21 92/90/21 118/118/21
f 89/87/21 103/101/21 106/104/21
f 91/89/21 93/91/21 114/114/21
f 101/99/21 94/93/21 83/81/21
f 86/84/21 90/88/21 98/96/21
f 103/101/21 89/87/21 88/86/21
f 109/109/21 101/99/21 100/98/21
f 105/103/21 107/106/21 99/97/21
f 102/100/21 97/95/21 99/97/21
f 108/107/21 118/118/21 73/73/21
f 109/109/21 116/116/21 73/73/21
f 117/117/21 115/115/21 83/81/21
f 119/119/1 120/120/1 121/121/1
f 121/121/1 120/120/1 122/122/1
f 123/123/1 121/121/1 122/122/1
f 124/124/1 125/125/1 126/126/1
f 126/126/1 125/125/1 127/127/1
f 128/128/1 129/129/1 130/130/1
f 130/130/1 129/129/1 131/131/1
f 132/132/1 133/133/1 134/134/1
f 133/133/1 135/135/1 134/134/1
f 134/134/1 135/135/1 136/136/1
f 137/137/1 138/138/1 139/139/1
f 139/139/1 138/138/1 140/140/1
f 141/141/1 142/142/1 143/143/1
f 143/143/1 142/142/1 144/144/1
f 145/145/1 146/146/1 147/147/1
f 147/147/1 146/146/1 148/148/1
f 149/149/1 150/150/1 151/151/1
f 151/151/1 150/150/1 152/152/1
f 153/153/1 154/65/1 155/86/1
f 145/145/1 153/153/1 155/86/1
f 146/146/1 145/145/1 155/86/1
f 149/149/1 146/146/1 155/86/1
f 150/150/1 149/149/1 155/86/1
f 128/128/1 150/150/1 155/86/1
f 129/129/1 128/128/1 155/86/1
f 132/132/1 129/129/1 155/86/1
f 133/133/1 132/132/1 155/86/1
f 119/119/1 133/133/1 155/86/1
f 120/120/1 119/119/1 155/86/1
f 124/124/1 120/120/1 155/86/1
f 125/125/1 124/124/1 155/86/1
f 137/137/1 125/125/1 155/86/1
f 138/138/1 137/137/1 155/86/1
f 141/141/1 138/138/1 155/86/1
f 142/142/1 141/141/1 155/86/1
f 156/154/1 142/142/1 155/86/1
f 157/155/1 156/154/1 155/86/1
f 158/156/1 153/153/1 159/157/1
f 158/156/1 159/157/1 160/158/1
f 159/157/1 147/147/1 160/158/1
f 147/147/1 148/148/1 160/158/1
f 148/148/1 151/151/1 160/158/1
f 151/151/1 152/152/1 160/158/1
f 152/152/1 130/130/1 160/158/1
f 130/130/1 131/131/1 160/158/1
f 131/131/1 134/134/1 160/158/1
f 134/134/1 136/136/1 160/158/1
f 136/136/1 123/123/1 160/158/1
f 123/123/1 122/122/1 160/158/1
f 122/122/1 126/126/1 160/158/1
f 126/126/1 127/127/1 160/158/1
f 127/127/1 139/139/1 160/158/1
f 139/139/1 140/140/1 160/158/1
f 140/140/1 143/143/1 160/158/1
f 143/143/1 144/144/1 160/158/1
f 144/144/1 157/155/1 160/158/1
f 157/155/1 155/86/1 160/158/1
f 160/158/1 155/86/1 161/81/1
f 162/159/1 160/158/1 161/81/1
f 154/65/1 153/153/1 158/156/1
f 154/65/1 158/156/1 163/67/1
f 163/67/1 158/156/1 164/160/1
f 163/67/1 164/160/1 161/81/1
f 164/160/1 162/159/1 161/81/1
f 165/161/22 166/162/22 167/163/22
f 165/161/22 167/163/22 168/164/22
f 169/165/22 170/166/22 171/167/22
f 169/165/22 171/167/22 172/168/22
f 173/169/22 174/170/22 175/171/22
f 174/170/22 176/172/22 175/171/22
f 177/173/22 178/174/22 179/175/22
f 177/173/22 179/175/22 180/176/22
f 181/177/22 182/178/22 183/179/22
f 182/178/22 184/180/22 183/179/22
f 185/181/22 186/182/22 187/183/22
f 186/182/22 188/184/22 187/183/22
f 189/185/22 190/186/22 191/187/22
f 189/185/22 191/187/22 192/188/22
f 193/189/22 194/190/22 195/191/22
f 194/190/22 196/192/22 195/191/22
f 197/193/22 198/194/22 199/195/22
f 198/194/22 200/196/22 199/195/22
f 200/196/22 201/197/22 199/195/22
f 201/197/22 202/198/22 199/195/22
f 202/198/22 203/199/22 199/195/22
f 203/199/22 165/161/22 199/195/22
f 165/161/22 168/164/22 199/195/22
f 168/164/22 169/165/22 199/195/22
f 169/165/22 172/168/22 199/195/22
f 172/168/22 173/169/22 199/195/22
f 174/170/22 171/167/22 204/86/22
f 171/167/22 170/166/22 204/86/22
f 170/166/22 167/163/22 204/86/22
f 167/163/22 166/162/22 204/86/22
f 166/162/22 205/200/22 204/86/22
f 205/200/22 206/201/22 204/86/22
f 206/201/22 207/202/22 204/86/22
f 207/202/22 208/203/22 204/86/22
f 208/203/22 197/193/22 204/86/22
f 197/193/22 199/195/22 204/86/22
f 209/204/22 196/192/22 210/81/22
f 196/192/22 194/190/22 210/81/22
f 194/190/22 191/187/22 210/81/22
f 191/187/22 190/186/22 210/81/22
f 190/186/22 188/184/22 210/81/22
f 188/184/22 186/182/22 210/81/22
f 186/182/22 184/180/22 210/81/22
f 184/180/22 182/178/22 210/81/22
f 182/178/22 179/175/22 210/81/22
f 179/175/22 178/174/22 210/81/22
f 178/174/22 176/172/22 210/81/22
f 176/172/22 174/170/22 210/81/22
f 174/170/22 204/86/22 210/81/22
f 199/195/22 173/169/22 211/205/22
f 173/169/22 175/171/22 211/205/22
f 175/171/22 177/173/22 211/205/22
f 177/173/22 180/176/22 211/205/22
f 180/176/22 181/177/22 211/205/22
f 181/177/22 183/179/22 211/205/22
f 183/179/22 185/181/22 211/205/22
f 185/181/22 187/183/22 211/205/22
f 187/183/22 189/185/22 211/205/22
f 189/185/22 192/188/22 211/205/22
f 192/188/22 193/189/22 211/205/22
f 193/189/22 195/191/22 211/205/22
f 195/191/22 212/206/22 211/205/22
f 212/206/22 209/204/22 211/205/22
f 209/204/22 210/81/22 211/205/22
f 200/196/22 208/203/22 207/202/22
f 200/196/22 207/202/22 201/197/22
f 202/198/22 206/201/22 205/200/22
f 202/198/22 205/200/22 203/199/22
f 213/207/22 214/208/22 215/209/22
f 213/207/22 215/209/22 216/210/22
f 217/211/22 218/212/22 219/213/22
f 217/211/22 219/213/22 220/214/22
f 221/215/22 222/216/22 223/217/22
f 222/216/22 224/218/22 223/217/22
f 225/219/22 226/220/22 227/221/22
f 225/219/22 227/221/22 228/222/22
f 229/223/22 230/224/22 231/225/22
f 230/224/22 232/226/22 231/225/22
f 233/227/22 234/228/22 235/229/22
f 234/228/22 236/230/22 235/229/22
f 237/231/22 238/232/22 239/233/22
f 237/231/22 239/233/22 240/234/22
f 241/235/22 242/236/22 243/237/22
f 242/236/22 244/238/22 243/237/22
f 245/239/22 246/240/22 247/241/22
f 246/240/22 248/242/22 247/241/22
f 248/242/22 249/243/22 247/241/22
f 249/243/22 250/244/22 247/241/22
f 250/244/22 251/245/22 247/241/22
f 251/245/22 213/207/22 247/241/22
f 213/207/22 216/210/22 247/241/22
f 216/210/22 217/211/22 247/241/22
f 217/211/22 220/214/22 247/241/22
f 220/214/22 221/215/22 247/241/22
f 222/216/22 219/213/22 252/195/22
f 219/213/22 218/212/22 252/195/22
f 218/212/22 215/209/22 252/195/22
f 215/209/22 214/208/22 252/195/22
f 214/208/22 253/246/22 252/195/22
f 253/246/22 254/247/22 252/195/22
f 254/247/22 255/248/22 252/195/22
f 255/248/22 256/249/22 252/195/22
f 256/249/22 245/239/22 252/195/22
f 245/239/22 247/241/22 252/195/22
f 257/250/22 244/238/22 258/205/22
f 244/238/22 242/236/22 258/205/22
f 242/236/22 239/233/22 258/205/22
f 239/233/22 238/232/22 258/205/22
f 238/232/22 236/230/22 258/205/22
f 236/230/22 234/228/22 258/205/22
f 234/228/22 232/226/22 258/205/22
f 232/226/22 230/224/22 258/205/22
f 230/224/22 227/221/22 258/205/22
f 227/221/22 226/220/22 258/205/22
f 226/220/22 224/218/22 258/205/22
f 224/218/22 222/216/22 258/205/22
f 222/216/22 252/195/22 258/205/22
f 247/241/22 221/215/22 259/251/22
f 221/215/22 223/217/22 259/251/22
f 223/217/22 225/219/22 259/251/22
f 225/219/22 228/222/22 259/251/22
f 228/222/22 229/223/22 259/251/22
f 229/223/22 231/225/22 259/251/22
f 231/225/22 233/227/22 259/251/22
f 233/227/22 235/229/22 259/251/22
f 235/229/22 237/231/22 259/251/22
f 237/231/22 240/234/22 259/251/22
f 240/234/22 241/235/22 259/251/22
f 241/235/22 243/237/22 259/251/22
f 243/237/22 260/252/22 259/251/22
f 260/252/22 257/250/22 259/251/22
f 257/250/22 258/205/22 259/251/22
f 248/242/22 256/249/22 255/248/22
f 248/242/22 255/248/22 249/243/22
f 250/244/22 254/247/22 253/246/22
f 250/244/22 253/246/22 251/245/22
f 261/253/23 262/254/23 263/255/23
f 262/253/22 265/254/22 263/256/22
f 265/253/24 267/254/24 268/255/24
f 267/253/21 261/254/21 264/255/21
f 269/253/23 270/254/23 271/255/23
f 270/253/22 273/254/22 271/256/22
f 273/253/24 275/254/24 276/255/24
f 275/253/21 269/254/21 272/255/21
f 277/253/24 278/254/24 279/255/24
f 281/253/22 282/254/22 277/256/22
f 283/253/23 284/254/23 282/255/23
f 280/253/21 279/254/21 284/255/21
f 285/253/24 286/254/24 287/255/24
f 289/253/22 290/254/22 285/256/22
f 291/253/23 292/254/23 290/255/23
f 288/253/21 287/254/21 292/255/21
f 293/253/24 294/254/24 295/255/24
f 297/253/22 298/254/22 293/256/22
f 299/253/23 300/254/23 298/255/23
f 296/253/21 295/254/21 300/255/21
f 301/253/24 302/254/24 303/255/24
f 305/253/22 306/254/22 301/256/22
f 307/253/23 308/254/23 306/255/23
f 304/253/21 303/254/21 308/255/21
f 309/253/24 310/254/24 311/255/24
f 313/253/22 314/254/22 309/256/22
f 315/253/23 316/254/23 314/255/23
f 312/253/21 311/254/21 316/255/21
f 317/253/24 318/254/24 319/255/24
f 321/253/22 322/254/22 317/256/22
f 323/253/23 324/254/23 322/255/23
f 320/253/21 319/254/21 324/255/21
f 325/253/23 326/254/23 327/255/23
f 326/253/22 329/254/22 327/256/22
f 329/253/24 331/254/24 332/255/24
f 331/253/21 325/254/21 328/255/21
f 333/253/23 334/254/23 335/255/23
f 334/253/22 337/254/22 335/256/22
f 337/253/24 339/254/24 340/255/24
f 339/253/21 333/254/21 336/255/21
f 341/253/23 342/254/23 343/255/23
f 342/253/22 345/254/22 343/256/22
f 345/253/24 347/254/24 348/255/24
f 347/253/21 341/254/21 344/255/21
f 349/253/23 350/254/23 351/255/23
f 350/253/22 353/254/22 351/256/22
f 353/253/24 355/254/24 356/255/24
f 355/253/21 349/254/21 352/255/21
f 357/253/23 358/254/23 359/255/23
f 358/253/22 361/254/22 359/256/22
f 361/253/24 363/254/24 364/255/24
f 363/253/21 357/254/21 360/255/21
f 365/253/23 366/254/23 367/255/23
f 366/253/22 369/254/22 367/256/22
f 369/253/24 371/254/24 372/255/24
f 371/253/21 365/254/21 368/255/21
f 373/253/23 374/254/23 375/255/23
f 374/253/22 377/254/22 375/256/22
f 377/253/24 379/254/24 380/255/24
f 379/253/21 373/254/21 376/255/21
f 381/253/23 382/254/23 383/255/23
f 382/253/22 385/254/22 383/256/22
f 385/253/24 387/254/24 388/255/24
f 387/253/21 381/254/21 384/255/21
f 389/253/23 390/254/23 391/255/23
f 390/253/22 393/254/22 391/256/22
f 393/253/24 395/254/24 396/255/24
f 395/253/21 389/254/21 392/255/21
f 397/253/23 398/254/23 399/255/23
f 398/253/1 401/254/1 402/255/1
f 401/253/24 403/254/24 404/255/24
f 403/253/25 397/254/25 400/255/25
f 405/253/23 406/254/23 407/255/23
f 406/253/4 409/254/4 410/255/4
f 409/253/24 411/254/24 412/255/24
f 411/253/26 405/254/26 408/255/26
f 413/253/23 414/254/23 415/255/23
f 414/253/1 417/254/1 418/255/1
f 417/253/24 419/254/24 420/255/24
f 419/253/25 413/254/25 416/255/25
f 421/253/23 422/254/23 423/255/23
f 422/253/4 425/254/4 426/255/4
f 425/253/24 427/254/24 428/255/24
f 427/253/26 421/254/26 424/255/26
f 429/253/23 430/254/23 431/255/23
f 430/253/1 433/254/1 434/255/1
f 433/253/24 435/254/24 436/255/24
f 435/253/25 429/254/25 432/255/25
f 437/253/23 438/254/23 439/255/23
f 438/253/4 441/254/4 442/255/4
f 441/253/24 443/254/24 444/255/24
f 443/253/26 437/254/26 440/255/26
f 445/253/23 446/254/23 447/255/23
f 446/253/1 449/254/1 450/255/1
f 449/253/24 451/254/24 452/255/24
f 451/253/25 445/254/25 448/255/25
f 453/253/23 454/254/23 455/255/23
f 454/253/1 457/254/1 458/255/1
f 457/253/24 459/254/24 460/255/24
f 459/253/25 453/254/25 456/255/25
f 461/253/23 462/254/23 463/255/23
f 462/253/1 465/254/1 466/255/1
f 465/253/24 467/254/24 468/255/24
f 467/253/25 461/254/25 464/255/25
f 469/253/23 470/254/23 471/255/23
f 470/253/1 473/254/1 474/255/1
f 473/253/24 475/254/24 476/255/24
f 475/253/25 469/254/25 472/255/25
f 477/253/23 478/254/23 479/255/23
f 478/253/1 481/254/1 482/255/1
f 481/253/24 483/254/24 484/255/24
f 483/253/25 477/254/25 480/255/25
f 247/86/27 259/81/27 88/64/27
f 485/257/24 486/258/24 487/259/24
f 489/257/28 490/260/28 492/261/28
f 493/262/24 494/263/24 161/264/24
f 259/265/24 495/266/24 83/81/24
f 161/264/24 494/263/24 497/267/24
f 83/81/29 498/268/29 73/269/29
f 500/262/24 211/264/24 501/270/24
f 210/271/24 502/272/24 211/264/24
f 503/273/24 83/81/24 496/274/24
f 498/268/24 83/81/24 504/273/24
f 244/275/22 257/276/22 243/277/22
f 163/278/24 497/267/24 259/265/24
f 73/269/30 499/279/30 210/271/30
f 505/253/24 506/254/24 507/255/24
f 509/253/22 510/254/22 505/256/22
f 511/253/23 512/254/23 510/255/23
f 508/253/21 507/254/21 512/255/21
f 513/253/23 514/254/23 515/255/23
f 517/253/21 518/254/21 519/255/21
f 521/253/24 522/254/24 519/255/24
f 523/253/22 516/254/22 524/256/22
f 525/253/24 526/254/24 527/255/24
f 529/253/22 530/254/22 525/256/22
f 531/253/23 532/254/23 530/255/23
f 528/253/21 527/254/21 532/255/21
f 533/253/24 534/254/24 535/255/24
f 537/253/22 538/254/22 533/256/22
f 539/253/23 540/254/23 538/255/23
f 536/253/21 535/254/21 540/255/21
f 541/253/24 542/254/24 543/255/24
f 545/253/22 546/254/22 541/256/22
f 547/253/23 548/254/23 546/255/23
f 544/253/21 543/254/21 548/255/21
f 549/253/24 550/254/24 551/255/24
f 553/253/22 554/254/22 549/256/22
f 555/253/23 556/254/23 554/255/23
f 552/253/21 551/254/21 556/255/21
f 557/253/24 558/254/24 559/255/24
f 561/253/22 562/254/22 557/256/22
f 563/253/23 564/254/23 562/255/23
f 560/253/21 559/254/21 564/255/21
f 565/253/24 566/254/24 567/255/24
f 569/253/22 570/254/22 565/256/22
f 571/253/23 572/254/23 570/255/23
f 568/253/21 567/254/21 572/255/21
f 573/253/24 574/254/24 575/255/24
f 577/253/22 578/254/22 573/256/22
f 579/253/23 580/254/23 578/255/23
f 576/253/21 575/254/21 580/255/21
f 581/253/24 582/254/24 583/255/24
f 585/253/22 586/254/22 581/256/22
f 587/253/23 588/254/23 586/255/23
f 584/253/21 583/254/21 588/255/21
f 589/253/24 590/254/24 591/255/24
f 593/253/22 594/254/22 589/256/22
f 595/253/23 596/254/23 594/255/23
f 592/253/21 591/254/21 596/255/21
f 520/253/21 597/254/21 598/255/21
f 599/253/22 522/254/22 600/256/22
f 601/253/22 599/254/22 602/256/22
f 597/253/21 603/254/21 604/255/21
f 605/253/22 601/254/22 606/256/22
f 603/253/21 607/254/21 608/255/21
f 609/253/22 605/254/22 610/256/22
f 607/253/21 611/254/21 612/255/21
f 613/253/22 609/254/22 614/256/22
f 611/253/21 615/254/21 616/255/21
f 617/253/22 613/254/22 618/256/22
f 615/253/21 619/254/21 620/255/21
f 621/253/22 617/254/22 622/256/22
f 619/253/21 623/254/21 624/255/21
f 625/253/22 621/254/22 626/256/22
f 623/253/21 627/254/21 624/256/21
f 629/253/22 625/254/22 626/255/22
f 627/253/21 631/254/21 628/256/21
f 633/253/22 629/254/22 630/255/22
f 631/253/21 635/254/21 632/256/21
f 637/253/22 633/254/22 634/255/22
f 635/253/21 639/254/21 636/256/21
f 641/253/22 637/254/22 638/255/22
f 639/253/21 643/254/21 644/255/21
f 645/253/22 641/254/22 646/256/22
f 643/253/21 647/254/21 648/255/21
f 649/253/22 645/254/22 650/256/22
f 647/253/21 651/254/21 652/255/21
f 653/253/22 649/254/22 654/256/22
f 651/253/21 655/254/21 656/255/21
f 657/253/22 653/254/22 658/256/22
f 655/253/21 659/254/21 660/255/21
f 661/253/22 657/254/22 662/256/22
f 659/253/21 663/254/21 664/255/21
f 524/253/22 661/254/22 523/256/22
f 663/253/21 514/254/21 513/255/21
f 598/280/1 517/281/1 600/282/1
f 597/253/24 598/254/24 602/255/24
f 607/253/24 608/254/24 610/255/24
f 608/283/1 604/284/1 606/285/1
f 616/286/1 612/287/1 614/288/1
f 615/253/24 616/254/24 618/255/24
f 624/289/1 620/290/1 622/291/1
f 626/253/24 625/254/24 623/255/24
f 632/292/1 628/293/1 630/294/1
f 631/253/31 632/254/31 633/256/31
f 640/295/1 636/296/1 638/297/1
f 642/253/24 641/254/24 639/255/24
f 648/298/1 644/299/1 646/300/1
f 650/253/24 649/254/24 647/255/24
f 656/301/1 652/302/1 654/303/1
f 655/253/24 656/254/24 658/255/24
f 664/304/1 660/305/1 662/306/1
f 664/253/23 663/254/23 524/255/23
f 600/253/24 599/254/24 520/255/24
f 603/253/24 604/254/24 606/255/24
f 614/253/24 613/254/24 611/255/24
f 619/253/24 620/254/24 622/255/24
f 630/253/32 629/254/32 627/255/32
f 635/253/33 636/254/33 637/256/33
f 643/253/32 644/254/32 646/255/32
f 651/253/24 652/254/24 654/255/24
f 662/253/24 661/254/24 659/255/24
f 665/253/23 666/254/23 667/255/23
f 666/253/26 669/254/26 670/255/26
f 669/253/24 671/254/24 672/255/24
f 671/253/1 665/254/1 668/255/1
f 673/253/23 674/254/23 675/255/23
f 674/253/25 677/254/25 678/255/25
f 677/253/24 679/254/24 680/255/24
f 679/253/1 673/254/1 676/255/1
f 681/253/23 682/254/23 683/255/23
f 682/253/26 685/254/26 686/255/26
f 685/253/24 687/254/24 688/255/24
f 687/253/1 681/254/1 684/255/1
f 689/253/23 690/254/23 691/255/23
f 690/253/25 693/254/25 694/255/25
f 693/253/24 695/254/24 696/255/24
f 695/253/1 689/254/1 692/255/1
f 697/253/23 698/254/23 699/255/23
f 698/253/26 701/254/26 702/255/26
f 701/253/24 703/254/24 704/255/24
f 703/253/1 697/254/1 700/255/1
f 705/253/23 706/254/23 707/255/23
f 706/253/25 709/254/25 710/255/25
f 709/253/24 711/254/24 712/255/24
f 711/253/1 705/254/1 708/255/1
f 713/253/23 714/254/23 715/255/23
f 714/253/25 717/254/25 718/255/25
f 717/253/24 719/254/24 720/255/24
f 719/253/1 713/254/1 716/255/1
f 721/253/23 722/254/23 723/255/23
f 722/253/25 725/254/25 726/255/25
f 725/253/24 727/254/24 728/255/24
f 727/253/1 721/254/1 724/255/1
f 729/253/23 730/254/23 731/255/23
f 730/253/25 733/254/25 734/255/25
f 733/253/24 735/254/24 736/255/24
f 735/253/1 729/254/1 732/255/1
f 737/253/23 738/254/23 739/255/23
f 738/253/25 741/254/25 742/255/25
f 741/253/24 743/254/24 744/255/24
f 743/253/1 737/254/1 740/255/1
f 196/275/22 209/276/22 195/277/22
f 745/253/23 746/254/23 747/255/23
f 746/253/25 749/254/25 750/255/25
f 749/253/24 751/254/24 752/255/24
f 751/253/4 745/254/4 748/255/4
f 753/253/23 754/254/23 755/255/23
f 754/253/25 757/254/25 758/255/25
f 757/253/24 759/254/24 760/255/24
f 759/253/1 753/254/1 756/255/1
f 761/253/23 762/254/23 763/255/23
f 762/253/25 765/254/25 766/255/25
f 765/253/24 767/254/24 768/255/24
f 767/253/4 761/254/4 764/255/4
f 769/253/23 770/254/23 771/255/23
f 770/253/25 773/254/25 774/255/25
f 773/253/24 775/254/24 776/255/24
f 775/253/1 769/254/1 772/255/1
f 777/253/23 778/254/23 779/255/23
f 778/253/25 781/254/25 782/255/25
f 781/253/24 783/254/24 784/255/24
f 783/253/4 777/254/4 780/255/4
f 785/253/23 786/254/23 787/255/23
f 786/253/25 789/254/25 790/255/25
f 789/253/24 791/254/24 792/255/24
f 791/253/1 785/254/1 788/255/1
f 793/253/23 794/254/23 795/255/23
f 794/253/25 797/254/25 798/255/25
f 797/253/24 799/254/24 800/255/24
f 799/253/1 793/254/1 796/255/1
f 801/253/23 802/254/23 803/255/23
f 802/253/25 805/254/25 806/255/25
f 805/253/24 807/254/24 808/255/24
f 807/253/1 801/254/1 804/255/1
f 809/253/23 810/254/23 811/255/23
f 810/253/25 813/254/25 814/255/25
f 813/253/24 815/254/24 816/255/24
f 815/253/1 809/254/1 812/255/1
f 817/253/23 818/254/23 819/255/23
f 818/253/25 821/254/25 822/255/25
f 821/253/24 823/254/24 824/255/24
f 823/253/1 817/254/1 820/255/1
f 485/307/24 488/308/24 825/309/24
f 827/310/24 828/309/24 491/311/24
f 495/312/34 486/313/34 485/314/34
f 497/315/21 487/316/21 486/317/21
f 494/318/25 488/319/25 497/320/25
f 496/321/35 485/314/35 503/322/35
f 493/323/36 825/324/36 488/319/36
f 501/325/37 491/326/37 828/324/37
f 499/327/25 489/328/25 502/325/25
f 498/329/22 490/330/22 499/331/22
f 502/332/21 492/333/21 491/334/21
f 504/322/38 827/335/38 498/336/38
f 749/337/22 746/338/22 751/339/22
f 757/337/22 754/338/22 759/339/22
f 765/337/22 762/338/22 767/339/22
f 773/340/22 770/341/22 775/342/22
f 781/337/22 778/338/22 783/339/22
f 789/337/22 786/338/22 791/339/22
f 797/337/22 794/338/22 799/339/22
f 805/337/22 802/338/22 807/339/22
f 813/340/22 810/338/22 815/342/22
f 821/337/22 818/338/22 823/339/22
f 522/343/1 599/344/1 520/345/1
f 601/346/1 605/347/1 603/348/1
f 609/349/1 613/350/1 611/351/1
f 617/349/1 621/350/1 619/351/1
f 625/352/1 629/350/1 627/351/1
f 633/353/1 637/350/1 635/351/1
f 641/354/1 645/350/1 643/351/1
f 649/343/1 653/347/1 651/348/1
f 657/343/1 661/347/1 659/348/1
f 524/343/1 515/355/1 514/356/1
f 594/357/1 596/358/1 591/359/1
f 510/357/1 512/358/1 507/359/1
f 546/357/1 548/358/1 543/359/1
f 566/360/1 570/357/1 572/358/1
f 526/361/1 530/362/1 532/363/1
f 538/364/1 540/365/1 535/366/1
f 558/367/1 562/368/1 564/358/1
f 550/367/1 554/368/1 556/358/1
f 582/367/1 586/368/1 588/358/1
f 574/367/1 578/368/1 580/358/1
f 669/337/22 666/338/22 671/339/22
f 677/337/22 674/338/22 679/339/22
f 685/337/22 682/338/22 687/339/22
f 693/340/22 690/341/22 695/342/22
f 701/337/22 698/338/22 703/339/22
f 709/337/22 706/338/22 711/339/22
f 717/337/22 714/338/22 719/339/22
f 725/337/22 722/338/22 727/339/22
f 733/340/22 730/338/22 735/342/22
f 741/337/22 738/338/22 743/339/22
f 273/275/1 270/276/1 269/369/1
f 265/337/1 262/338/1 261/370/1
f 393/340/1 390/338/1 389/370/1
f 385/337/1 382/338/1 381/370/1
f 377/337/1 374/338/1 373/370/1
f 369/337/1 366/338/1 365/370/1
f 361/337/4 358/338/4 357/370/4
f 353/340/1 350/341/1 349/371/1
f 345/337/4 342/338/4 341/370/4
f 337/337/1 334/338/1 333/370/1
f 329/337/4 326/338/4 325/370/4
f 282/368/1 284/372/1 279/373/1
f 322/368/1 324/372/1 319/373/1
f 294/361/1 298/362/1 300/363/1
f 302/374/1 306/364/1 308/365/1
f 310/367/1 314/368/1 316/358/1
f 286/367/1 290/368/1 292/358/1
f 409/375/21 406/376/21 405/370/21
f 417/375/21 414/376/21 413/370/21
f 425/375/21 422/376/21 421/370/21
f 433/377/21 430/376/21 429/370/21
f 441/375/21 438/376/21 437/370/21
f 449/375/21 446/376/21 445/370/21
f 457/375/21 454/376/21 453/370/21
f 465/375/21 462/376/21 461/370/21
f 473/377/21 470/376/21 469/370/21
f 481/375/21 478/376/21 477/370/21
f 401/378/21 398/379/21 397/369/21
f 77/92/21 74/74/21 76/76/21
f 81/105/21 78/77/21 80/79/21
f 96/108/21 84/82/21 95/94/21
f 87/85/21 102/100/21 88/86/21
f 99/97/21 107/106/21 73/73/21
f 105/103/21 104/102/21 107/106/21
f 88/86/21 83/81/21 112/112/21
f 71/71/21 82/80/21 72/72/21
f 108/107/21 112/112/21 118/118/21
f 111/111/21 89/87/21 106/104/21
f 113/113/21 91/89/21 114/114/21
f 97/95/21 86/84/21 98/96/21
f 116/116/21 109/109/21 100/98/21
f 73/73/21 117/117/21 83/81/21
f 264/256/23 261/253/23 263/255/23
f 265/254/22 266/255/22 263/256/22
f 266/256/24 265/253/24 268/255/24
f 268/256/21 267/253/21 264/255/21
f 272/256/23 269/253/23 271/255/23
f 273/254/22 274/255/22 271/256/22
f 274/256/24 273/253/24 276/255/24
f 276/256/21 275/253/21 272/255/21
f 280/256/24 277/253/24 279/255/24
f 282/254/22 278/255/22 277/256/22
f 281/256/23 283/253/23 282/255/23
f 283/256/21 280/253/21 284/255/21
f 288/256/24 285/253/24 287/255/24
f 290/254/22 286/255/22 285/256/22
f 289/256/23 291/253/23 290/255/23
f 291/256/21 288/253/21 292/255/21
f 296/256/24 293/253/24 295/255/24
f 298/254/22 294/255/22 293/256/22
f 297/256/23 299/253/23 298/255/23
f 299/256/21 296/253/21 300/255/21
f 304/256/24 301/253/24 303/255/24
f 306/254/22 302/255/22 301/256/22
f 305/256/23 307/253/23 306/255/23
f 307/256/21 304/253/21 308/255/21
f 312/256/24 309/253/24 311/255/24
f 314/254/22 310/255/22 309/256/22
f 313/256/23 315/253/23 314/255/23
f 315/256/21 312/253/21 316/255/21
f 320/256/24 317/253/24 319/255/24
f 322/254/22 318/255/22 317/256/22
f 321/256/23 323/253/23 322/255/23
f 323/256/21 320/253/21 324/255/21
f 328/256/23 325/253/23 327/255/23
f 329/254/22 330/255/22 327/256/22
f 330/256/24 329/253/24 332/255/24
f 332/256/21 331/253/21 328/255/21
f 336/256/23 333/253/23 335/255/23
f 337/254/22 338/255/22 335/256/22
f 338/256/24 337/253/24 340/255/24
f 340/256/21 339/253/21 336/255/21
f 344/256/23 341/253/23 343/255/23
f 345/254/22 346/255/22 343/256/22
f 346/256/24 345/253/24 348/255/24
f 348/256/21 347/253/21 344/255/21
f 352/256/23 349/253/23 351/255/23
f 353/254/22 354/255/22 351/256/22
f 354/256/24 353/253/24 356/255/24
f 356/256/21 355/253/21 352/255/21
f 360/256/23 357/253/23 359/255/23
f 361/254/22 362/255/22 359/256/22
f 362/256/24 361/253/24 364/255/24
f 364/256/21 363/253/21 360/255/21
f 368/256/23 365/253/23 367/255/23
f 369/254/22 370/255/22 367/256/22
f 370/256/24 369/253/24 372/255/24
f 372/256/21 371/253/21 368/255/21
f 376/256/23 373/253/23 375/255/23
f 377/254/22 378/255/22 375/256/22
f 378/256/24 377/253/24 380/255/24
f 380/256/21 379/253/21 376/255/21
f 384/256/23 381/253/23 383/255/23
f 385/254/22 386/255/22 383/256/22
f 386/256/24 385/253/24 388/255/24
f 388/256/21 387/253/21 384/255/21
f 392/256/23 389/253/23 391/255/23
f 393/254/22 394/255/22 391/256/22
f 394/256/24 393/253/24 396/255/24
f 396/256/21 395/253/21 392/255/21
f 400/256/23 397/253/23 399/255/23
f 399/256/1 398/253/1 402/255/1
f 402/256/24 401/253/24 404/255/24
f 404/256/25 403/253/25 400/255/25
f 408/256/23 405/253/23 407/255/23
f 407/256/4 406/253/4 410/255/4
f 410/256/24 409/253/24 412/255/24
f 412/256/26 411/253/26 408/255/26
f 416/256/23 413/253/23 415/255/23
f 415/256/1 414/253/1 418/255/1
f 418/256/24 417/253/24 420/255/24
f 420/256/25 419/253/25 416/255/25
f 424/256/23 421/253/23 423/255/23
f 423/256/4 422/253/4 426/255/4
f 426/256/24 425/253/24 428/255/24
f 428/256/26 427/253/26 424/255/26
f 432/256/23 429/253/23 431/255/23
f 431/256/1 430/253/1 434/255/1
f 434/256/24 433/253/24 436/255/24
f 436/256/25 435/253/25 432/255/25
f 440/256/23 437/253/23 439/255/23
f 439/256/4 438/253/4 442/255/4
f 442/256/24 441/253/24 444/255/24
f 444/256/26 443/253/26 440/255/26
f 448/256/23 445/253/23 447/255/23
f 447/256/1 446/253/1 450/255/1
f 450/256/24 449/253/24 452/255/24
f 452/256/25 451/253/25 448/255/25
f 456/256/23 453/253/23 455/255/23
f 455/256/1 454/253/1 458/255/1
f 458/256/24 457/253/24 460/255/24
f 460/256/25 459/253/25 456/255/25
f 464/256/23 461/253/23 463/255/23
f 463/256/1 462/253/1 466/255/1
f 466/256/24 465/253/24 468/255/24
f 468/256/25 467/253/25 464/255/25
f 472/256/23 469/253/23 471/255/23
f 471/256/1 470/253/1 474/255/1
f 474/256/24 473/253/24 476/255/24
f 476/256/25 475/253/25 472/255/25
f 480/256/23 477/253/23 479/255/23
f 479/256/1 478/253/1 482/255/1
f 482/256/24 481/253/24 484/255/24
f 484/256/25 483/253/25 480/255/25
f 259/81/27 83/69/27 88/64/27
f 488/380/39 485/257/39 487/259/39
f 490/260/28 491/381/28 492/261/28
f 495/266/24 496/274/24 83/81/24
f 163/278/24 161/264/24 497/267/24
f 498/268/24 499/279/24 73/269/24
f 502/272/24 501/270/24 211/264/24
f 257/276/22 260/382/22 243/277/22
f 497/267/24 495/266/24 259/265/24
f 499/279/40 502/272/40 210/271/40
f 508/256/24 505/253/24 507/255/24
f 510/254/22 506/255/22 505/256/22
f 509/256/23 511/253/23 510/255/23
f 511/256/21 508/253/21 512/255/21
f 516/256/23 513/253/23 515/255/23
f 520/256/21 517/253/21 519/255/21
f 518/256/24 521/253/24 519/255/24
f 516/254/22 515/255/22 524/256/22
f 528/256/24 525/253/24 527/255/24
f 530/254/22 526/255/22 525/256/22
f 529/256/23 531/253/23 530/255/23
f 531/256/21 528/253/21 532/255/21
f 536/256/24 533/253/24 535/255/24
f 538/254/22 534/255/22 533/256/22
f 537/256/23 539/253/23 538/255/23
f 539/256/21 536/253/21 540/255/21
f 544/256/24 541/253/24 543/255/24
f 546/254/22 542/255/22 541/256/22
f 545/256/23 547/253/23 546/255/23
f 547/256/21 544/253/21 548/255/21
f 552/256/24 549/253/24 551/255/24
f 554/254/22 550/255/22 549/256/22
f 553/256/23 555/253/23 554/255/23
f 555/256/21 552/253/21 556/255/21
f 560/256/24 557/253/24 559/255/24
f 562/254/22 558/255/22 557/256/22
f 561/256/23 563/253/23 562/255/23
f 563/256/21 560/253/21 564/255/21
f 568/256/24 565/253/24 567/255/24
f 570/254/22 566/255/22 565/256/22
f 569/256/23 571/253/23 570/255/23
f 571/256/21 568/253/21 572/255/21
f 576/256/24 573/253/24 575/255/24
f 578/254/22 574/255/22 573/256/22
f 577/256/23 579/253/23 578/255/23
f 579/256/21 576/253/21 580/255/21
f 584/256/24 581/253/24 583/255/24
f 586/254/22 582/255/22 581/256/22
f 585/256/23 587/253/23 586/255/23
f 587/256/21 584/253/21 588/255/21
f 592/256/24 589/253/24 591/255/24
f 594/254/22 590/255/22 589/256/22
f 593/256/23 595/253/23 594/255/23
f 595/256/21 592/253/21 596/255/21
f 517/256/21 520/253/21 598/255/21
f 522/254/22 521/255/22 600/256/22
f 599/254/22 600/255/22 602/256/22
f 598/256/21 597/253/21 604/255/21
f 601/254/22 602/255/22 606/256/22
f 604/256/21 603/253/21 608/255/21
f 605/254/22 606/255/22 610/256/22
f 608/256/21 607/253/21 612/255/21
f 609/254/22 610/255/22 614/256/22
f 612/256/21 611/253/21 616/255/21
f 613/254/22 614/255/22 618/256/22
f 616/256/21 615/253/21 620/255/21
f 617/254/22 618/255/22 622/256/22
f 620/256/21 619/253/21 624/255/21
f 621/254/22 622/255/22 626/256/22
f 627/254/21 628/255/21 624/256/21
f 630/256/22 629/253/22 626/255/22
f 631/254/21 632/255/21 628/256/21
f 634/256/22 633/253/22 630/255/22
f 635/254/21 636/255/21 632/256/21
f 638/256/22 637/253/22 634/255/22
f 639/254/21 640/255/21 636/256/21
f 642/256/22 641/253/22 638/255/22
f 640/256/21 639/253/21 644/255/21
f 641/254/22 642/255/22 646/256/22
f 644/256/21 643/253/21 648/255/21
f 645/254/22 646/255/22 650/256/22
f 648/256/21 647/253/21 652/255/21
f 649/254/22 650/255/22 654/256/22
f 652/256/21 651/253/21 656/255/21
f 653/254/22 654/255/22 658/256/22
f 656/256/21 655/253/21 660/255/21
f 657/254/22 658/255/22 662/256/22
f 660/256/21 659/253/21 664/255/21
f 661/254/22 662/255/22 523/256/22
f 664/256/21 663/253/21 513/255/21
f 602/383/1 598/280/1 600/282/1
f 601/256/24 597/253/24 602/255/24
f 609/256/24 607/253/24 610/255/24
f 610/384/1 608/283/1 606/285/1
f 618/385/1 616/286/1 614/288/1
f 617/256/24 615/253/24 618/255/24
f 626/386/1 624/289/1 622/291/1
f 624/256/24 626/253/24 623/255/24
f 634/387/1 632/292/1 630/294/1
f 632/254/41 634/255/41 633/256/41
f 642/388/1 640/295/1 638/297/1
f 640/256/24 642/253/24 639/255/24
f 650/389/1 648/298/1 646/300/1
f 648/256/24 650/253/24 647/255/24
f 658/390/1 656/301/1 654/303/1
f 657/256/24 655/253/24 658/255/24
f 523/391/1 664/304/1 662/306/1
f 523/256/23 664/253/23 524/255/23
f 517/256/24 600/253/24 520/255/24
f 605/256/24 603/253/24 606/255/24
f 612/256/24 614/253/24 611/255/24
f 621/256/24 619/253/24 622/255/24
f 628/256/33 630/253/33 627/255/33
f 636/254/32 638/255/32 637/256/32
f 645/256/33 643/253/33 646/255/33
f 653/256/24 651/253/24 654/255/24
f 660/256/24 662/253/24 659/255/24
f 668/256/23 665/253/23 667/255/23
f 667/256/26 666/253/26 670/255/26
f 670/256/24 669/253/24 672/255/24
f 672/256/1 671/253/1 668/255/1
f 676/256/23 673/253/23 675/255/23
f 675/256/25 674/253/25 678/255/25
f 678/256/24 677/253/24 680/255/24
f 680/256/1 679/253/1 676/255/1
f 684/256/23 681/253/23 683/255/23
f 683/256/26 682/253/26 686/255/26
f 686/256/24 685/253/24 688/255/24
f 688/256/1 687/253/1 684/255/1
f 692/256/23 689/253/23 691/255/23
f 691/256/25 690/253/25 694/255/25
f 694/256/24 693/253/24 696/255/24
f 696/256/1 695/253/1 692/255/1
f 700/256/23 697/253/23 699/255/23
f 699/256/26 698/253/26 702/255/26
f 702/256/24 701/253/24 704/255/24
f 704/256/1 703/253/1 700/255/1
f 708/256/23 705/253/23 707/255/23
f 707/256/25 706/253/25 710/255/25
f 710/256/24 709/253/24 712/255/24
f 712/256/1 711/253/1 708/255/1
f 716/256/23 713/253/23 715/255/23
f 715/256/25 714/253/25 718/255/25
f 718/256/24 717/253/24 720/255/24
f 720/256/1 719/253/1 716/255/1
f 724/256/23 721/253/23 723/255/23
f 723/256/25 722/253/25 726/255/25
f 726/256/24 725/253/24 728/255/24
f 728/256/1 727/253/1 724/255/1
f 732/256/23 729/253/23 731/255/23
f 731/256/25 730/253/25 734/255/25
f 734/256/24 733/253/24 736/255/24
f 736/256/1 735/253/1 732/255/1
f 740/256/23 737/253/23 739/255/23
f 739/256/25 738/253/25 742/255/25
f 742/256/24 741/253/24 744/255/24
f 744/256/1 743/253/1 740/255/1
f 209/276/22 212/382/22 195/277/22
f 748/256/23 745/253/23 747/255/23
f 747/256/25 746/253/25 750/255/25
f 750/256/24 749/253/24 752/255/24
f 752/256/4 751/253/4 748/255/4
f 756/256/23 753/253/23 755/255/23
f 755/256/25 754/253/25 758/255/25
f 758/256/24 757/253/24 760/255/24
f 760/256/1 759/253/1 756/255/1
f 764/256/23 761/253/23 763/255/23
f 763/256/25 762/253/25 766/255/25
f 766/256/24 765/253/24 768/255/24
f 768/256/4 767/253/4 764/255/4
f 772/256/23 769/253/23 771/255/23
f 771/256/25 770/253/25 774/255/25
f 774/256/24 773/253/24 776/255/24
f 776/256/1 775/253/1 772/255/1
f 780/256/23 777/253/23 779/255/23
f 779/256/25 778/253/25 782/255/25
f 782/256/24 781/253/24 784/255/24
f 784/256/4 783/253/4 780/255/4
f 788/256/23 785/253/23 787/255/23
f 787/256/25 786/253/25 790/255/25
f 790/256/24 789/253/24 792/255/24
f 792/256/1 791/253/1 788/255/1
f 796/256/23 793/253/23 795/255/23
f 795/256/25 794/253/25 798/255/25
f 798/256/24 797/253/24 800/255/24
f 800/256/1 799/253/1 796/255/1
f 804/256/23 801/253/23 803/255/23
f 803/256/25 802/253/25 806/255/25
f 806/256/24 805/253/24 808/255/24
f 808/256/1 807/253/1 804/255/1
f 812/256/23 809/253/23 811/255/23
f 811/256/25 810/253/25 814/255/25
f 814/256/24 813/253/24 816/255/24
f 816/256/1 815/253/1 812/255/1
f 820/256/23 817/253/23 819/255/23
f 819/256/25 818/253/25 822/255/25
f 822/256/24 821/253/24 824/255/24
f 824/256/1 823/253/1 820/255/1
f 826/310/24 485/307/24 825/309/24
f 490/392/24 827/310/24 491/311/24
f 496/321/34 495/312/34 485/314/34
f 495/393/21 497/315/21 486/317/21
f 488/319/25 487/394/25 497/320/25
f 485/314/35 826/335/35 503/322/35
f 494/318/36 493/323/36 488/319/36
f 500/323/37 501/325/37 828/324/37
f 489/328/25 492/326/25 502/325/25
f 490/330/22 489/395/22 499/331/22
f 501/396/21 502/332/21 491/334/21
f 827/335/38 490/397/38 498/336/38
f 746/338/22 745/398/22 751/339/22
f 754/338/22 753/398/22 759/339/22
f 762/338/22 761/398/22 767/339/22
f 770/341/22 769/399/22 775/342/22
f 778/338/22 777/398/22 783/339/22
f 786/338/22 785/398/22 791/339/22
f 794/338/22 793/398/22 799/339/22
f 802/338/22 801/398/22 807/339/22
f 810/338/22 809/398/22 815/342/22
f 818/338/22 817/398/22 823/339/22
f 519/400/1 522/343/1 520/345/1
f 597/401/1 601/346/1 603/348/1
f 607/402/1 609/349/1 611/351/1
f 615/402/1 617/349/1 619/351/1
f 623/403/1 625/352/1 627/351/1
f 631/404/1 633/353/1 635/351/1
f 639/405/1 641/354/1 643/351/1
f 647/400/1 649/343/1 651/348/1
f 655/400/1 657/343/1 659/348/1
f 663/400/1 524/343/1 514/356/1
f 590/360/1 594/357/1 591/359/1
f 506/360/1 510/357/1 507/359/1
f 542/360/1 546/357/1 543/359/1
f 567/359/1 566/360/1 572/358/1
f 527/406/1 526/361/1 532/363/1
f 534/374/1 538/364/1 535/366/1
f 559/359/1 558/367/1 564/358/1
f 551/359/1 550/367/1 556/358/1
f 583/359/1 582/367/1 588/358/1
f 575/359/1 574/367/1 580/358/1
f 666/338/22 665/398/22 671/339/22
f 674/338/22 673/398/22 679/339/22
f 682/338/22 681/398/22 687/339/22
f 690/341/22 689/399/22 695/342/22
f 698/338/22 697/398/22 703/339/22
f 706/338/22 705/398/22 711/339/22
f 714/338/22 713/398/22 719/339/22
f 722/338/22 721/398/22 727/339/22
f 730/338/22 729/398/22 735/342/22
f 738/338/22 737/398/22 743/339/22
f 275/407/1 273/275/1 269/369/1
f 267/408/1 265/337/1 261/370/1
f 395/409/1 393/340/1 389/370/1
f 387/408/1 385/337/1 381/370/1
f 379/408/1 377/337/1 373/370/1
f 371/408/1 369/337/1 365/370/1
f 363/408/4 361/337/4 357/370/4
f 355/409/1 353/340/1 349/371/1
f 347/408/4 345/337/4 341/370/4
f 339/408/1 337/337/1 333/370/1
f 331/408/4 329/337/4 325/370/4
f 278/367/1 282/368/1 279/373/1
f 318/367/1 322/368/1 319/373/1
f 295/406/1 294/361/1 300/363/1
f 303/366/1 302/374/1 308/365/1
f 311/359/1 310/367/1 316/358/1
f 287/359/1 286/367/1 292/358/1
f 411/408/21 409/375/21 405/370/21
f 419/408/21 417/375/21 413/370/21
f 427/408/21 425/375/21 421/370/21
f 435/409/21 433/377/21 429/370/21
f 443/408/21 441/375/21 437/370/21
f 451/408/21 449/375/21 445/370/21
f 459/408/21 457/375/21 453/370/21
f 467/408/21 465/375/21 461/370/21
f 475/409/21 473/377/21 469/370/21
f 483/408/21 481/375/21 477/370/21
f 403/407/21 401/378/21 397/369/21
